%!PS-Adobe-3.0
%%BoundingBox: 0 0 550 450
%%HiResBoundingBox: 0 0 550 450
%%Title: GMT v4.5.3 [64-bit] Document from psbasemap
%%Creator: GMT
%%For: pvankeken
%%DocumentNeededResources: font Helvetica Bookman-Light
%%CreationDate: Wed Mar 10 16:24:13 2021
%%LanguageLevel: 2
%%DocumentData: Clean7Bit
%%Orientation: Landscape
%%Pages: 1
%%EndComments

%%BeginProlog
250 dict begin
/! {bind def} bind def
/# {load def}!
/A /setgray #
/B /setdash #
/C /setrgbcolor #
/D /rlineto #
/E {dup stringwidth pop}!
/F /fill #
/G /rmoveto #
/H /sethsbcolor #
/I /setpattern #
/K /setcmykcolor #
/L /lineto #
/M {stroke moveto}!
/m /moveto #
/N /newpath #
/P /closepath #
/R /rotate #
/S /stroke #
/T /translate #
/U /grestore #
/V /gsave #
/W /setlinewidth #
/Y {findfont exch scalefont setfont}!
/Z /show #
/FP {true charpath flattenpath}!
/MS {/savematrix matrix currentmatrix def}!
/MR {savematrix setmatrix}!
/O {S 3 -1 roll 0 360 arc P F S}!
/X {M 1.414213562 mul 5 {dup} repeat -2 div dup G D neg 0 G neg D S}!
/x {M dup 0 G dup -2 mul dup 0 D exch dup G 0 exch D S}!
/FS {/fc exch def /fs {V fc F U} def}!
/FQ {/fs {} def}!
/O0 {/os {N} def}!
/O1 {/os {S} def}!
/SP {M {D} repeat P fs os}!
/SV {0 exch M 0 D D D D D 0 D P fs os}!
/Sv {0 0 M D D 0 D D D D D 0 D D P fs os}!
/SB {M dup 0 D exch 0 exch D neg 0 D P fs os}!
/SC {S 3 -1 roll 0 360 arc P fs os}!
/SE {S MS T R scale 0 0 1 0 360 arc MR P fs os}!
/SD {M 4 {dup} repeat 0 G neg dup dup D exch D D P fs os}!
/SR {M MS R dup -2 div 0 G exch dup -2 div 0 exch G exch dup 0 D exch 0 exch D neg 0 D MR P fs os}!
/SS {M 1.414213562 mul dup dup dup -2 div dup G 0 D 0 exch D neg 0 D P fs os}!
/ST {M MS dup 0 exch G -60 R 1.732050808 mul dup 0 D -120 R 0 D MR P fs os}!
/SI {M MS dup neg 0 exch G 60 R 1.732050808 mul dup 0 D 120 R 0 D MR P fs os}!
/SA {M MS dup 0 exch G 0.726542528 mul -72 R dup 0 D 4 {72 R dup 0 D -144 R dup 0 D} repeat pop MR P fs os}!
/SH {M MS dup 0 G -120 R dup 0 D 4 {-60 R dup 0 D} repeat pop MR P fs os}!
/SN {M MS dup 0 exch G -36 R 1.175570505 mul dup 0 D 3 {-72 R dup 0 D} repeat pop MR P fs os}!
/SO {M MS 22.5 R dup 0 exch G -22.5 R 0.765366865 mul dup 0 D 6 {-45 R dup 0 D} repeat pop MR P fs os}!
/SW {S 2 copy 7 -3 roll arc L P fs os}!
/PSL_reencode {findfont dup length dict begin
  {1 index /FID ne {def}{pop pop} ifelse} forall
  exch /Encoding exch def currentdict end definefont pop
}!
/PSL_eps_begin {
  /PSL_eps_state save def
  /PSL_dict_count countdictstack def
  /PSL_op_count count 1 sub def
  userdict begin
  /showpage {} def
  0 setgray 0 setlinecap 1 setlinewidth
  0 setlinejoin 10 setmiterlimit [] 0 setdash newpath
  /languagelevel where
  {pop languagelevel 1 ne {false setstrokeadjust false setoverprint} if} if
}!
/PSL_eps_end {
  count PSL_op_count sub {pop} repeat
  countdictstack PSL_dict_count sub {end} repeat
  PSL_eps_state restore
}!
/ISOLatin1+_Encoding [
/.notdef	/.notdef	/.notdef	/.notdef	/.notdef	/.notdef	/.notdef	/.notdef
/.notdef	/.notdef	/.notdef	/.notdef	/.notdef	/.notdef	/.notdef	/.notdef
/.notdef	/.notdef	/.notdef	/.notdef	/.notdef	/.notdef	/.notdef	/.notdef
/.notdef	/bullet		/ellipsis	/trademark	/emdash		/endash		/fi		/zcaron
/space		/exclam		/quotedbl	/numbersign	/dollar		/percent	/ampersand	/quoteright
/parenleft	/parenright	/asterisk	/plus		/comma		/minus		/period		/slash
/zero		/one		/two		/three		/four		/five		/six		/seven
/eight		/nine		/colon		/semicolon	/less		/equal		/greater	/question
/at		/A		/B		/C		/D		/E		/F		/G
/H		/I		/J		/K		/L		/M		/N		/O
/P		/Q		/R		/S		/T		/U		/V		/W
/X		/Y		/Z		/bracketleft	/backslash	/bracketright	/asciicircum	/underscore
/quoteleft	/a		/b		/c 		/d		/e		/f		/g
/h		/i		/j		/k		/l		/m		/n		/o
/p		/q		/r		/s		/t		/u		/v		/w
/x		/y		/z		/braceleft	/bar		/braceright	/asciitilde	/scaron
/OE		/dagger		/daggerdbl	/Lslash		/fraction	/guilsinglleft	/Scaron		/guilsinglright
/oe		/Ydieresis	/Zcaron		/lslash		/perthousand	/quotedblbase	/quotedblleft	/quotedblright
/dotlessi	/grave		/acute		/circumflex	/tilde		/macron		/breve		/dotaccent
/dieresis	/quotesinglbase	/ring		/cedilla	/quotesingle	/hungarumlaut	/ogonek		/caron
/space		/exclamdown	/cent		/sterling	/currency	/yen		/brokenbar	/section
/dieresis	/copyright	/ordfeminine	/guillemotleft	/logicalnot	/hyphen		/registered	/macron
/degree		/plusminus	/twosuperior	/threesuperior	/acute		/mu		/paragraph	/periodcentered
/cedilla	/onesuperior	/ordmasculine	/guillemotright	/onequarter	/onehalf	/threequarters	/questiondown
/Agrave		/Aacute		/Acircumflex	/Atilde		/Adieresis	/Aring		/AE		/Ccedilla
/Egrave		/Eacute		/Ecircumflex	/Edieresis	/Igrave		/Iacute		/Icircumflex	/Idieresis
/Eth		/Ntilde		/Ograve		/Oacute		/Ocircumflex	/Otilde		/Odieresis	/multiply
/Oslash		/Ugrave		/Uacute		/Ucircumflex	/Udieresis	/Yacute		/Thorn		/germandbls
/agrave		/aacute		/acircumflex	/atilde		/adieresis	/aring		/ae		/ccedilla
/egrave		/eacute		/ecircumflex	/edieresis	/igrave		/iacute		/icircumflex	/idieresis
/eth		/ntilde		/ograve		/oacute		/ocircumflex	/otilde		/odieresis	/divide
/oslash		/ugrave		/uacute		/ucircumflex	/udieresis	/yacute		/thorn		/ydieresis
] def
/PSL_font_encode 0 0 0 0 0 0 0 0 0 0 0 0 0 0 0 0 0 0 0 0 0 0 0 0 0 0 0 0 0 0 0 0 0 0 0 35 array astore def
/F0 {/Helvetica Y}!
/F1 {/Helvetica-Bold Y}!
/F2 {/Helvetica-Oblique Y}!
/F3 {/Helvetica-BoldOblique Y}!
/F4 {/Times-Roman Y}!
/F5 {/Times-Bold Y}!
/F6 {/Times-Italic Y}!
/F7 {/Times-BoldItalic Y}!
/F8 {/Courier Y}!
/F9 {/Courier-Bold Y}!
/F10 {/Courier-Oblique Y}!
/F11 {/Courier-BoldOblique Y}!
/F12 {/Symbol Y}!
/F13 {/AvantGarde-Book Y}!
/F14 {/AvantGarde-BookOblique Y}!
/F15 {/AvantGarde-Demi Y}!
/F16 {/AvantGarde-DemiOblique Y}!
/F17 {/Bookman-Demi Y}!
/F18 {/Bookman-DemiItalic Y}!
/F19 {/Bookman-Light Y}!
/F20 {/Bookman-LightItalic Y}!
/F21 {/Helvetica-Narrow Y}!
/F22 {/Helvetica-Narrow-Bold Y}!
/F23 {/Helvetica-Narrow-Oblique Y}!
/F24 {/Helvetica-Narrow-BoldOblique Y}!
/F25 {/NewCenturySchlbk-Roman Y}!
/F26 {/NewCenturySchlbk-Italic Y}!
/F27 {/NewCenturySchlbk-Bold Y}!
/F28 {/NewCenturySchlbk-BoldItalic Y}!
/F29 {/Palatino-Roman Y}!
/F30 {/Palatino-Italic Y}!
/F31 {/Palatino-Bold Y}!
/F32 {/Palatino-BoldItalic Y}!
/F33 {/ZapfChancery-MediumItalic Y}!
/F34 {/ZapfDingbats Y}!
/PSL_pathtextdict 26 dict def
/PSL_pathtext
  { PSL_pathtextdict begin
    /textheight exch def
    /just exch def
    /offset exch def
    /str exch def
    /pathdist 0 def
    /setdist offset def
    /charcount 0 def
    /justy just 4 idiv textheight mul 2 div neg def
    V flattenpath
	{movetoproc} {linetoproc}
	{curvetoproc} {closepathproc}
	pathforall
    U N
    end
  } def
PSL_pathtextdict begin
/movetoproc
  { /newy exch def /newx exch def
    /firstx newx def /firsty newy def
    /ovr 0 def
    newx newy transform
    /cpy exch def /cpx exch def
  } def
/linetoproc
  { /oldx newx def /oldy newy def
    /newy exch def /newx exch def
    /dx newx oldx sub def
    /dy newy oldy sub def
    /dist dx dup mul dy dup mul add sqrt def
    dist 0 ne
    { /dsx dx dist div ovr mul def
      /dsy dy dist div ovr mul def
      oldx dsx add oldy dsy add transform
      /cpy exch def /cpx exch def
      /pathdist pathdist dist add def
      { setdist pathdist le
	  { charcount str length lt
	      {setchar} {exit} ifelse }
	  { /ovr setdist pathdist sub def
	    exit }
	  ifelse
      } loop
    } if
  } def
/curvetoproc
  { (ERROR: No curveto's after flattenpath!)
    print
  } def
/closepathproc
  { firstx firsty linetoproc
    firstx firsty movetoproc
  } def
/setchar
  { /char str charcount 1 getinterval def
    /charcount charcount 1 add def
    /charwidth char stringwidth pop def
    V cpx cpy itransform T
      dy dx atan R
      0 justy m
      char show
      0 justy neg G
      currentpoint transform
      /cpy exch def /cpx exch def
    U /setdist setdist charwidth add def
  } def
end
/PSL_curved_text_labels
{ /bits exch def
  /PSL_clippath bits 1 and 1 eq def
  /PSL_placetext bits 2 and 0 eq def
  /PSL_strokeline bits 4 and 4 eq def
  /PSL_firstcall bits 32 and 32 eq def
  /PSL_lastcall bits 64 and 64 eq def
  /PSL_fillbox bits 128 and 128 eq def
  /PSL_drawbox bits 256 and 256 eq def
  /PSL_n1 PSL_n 1 sub def
  /PSL_m1 PSL_m 1 sub def
  /PSL_usebox PSL_fillbox PSL_drawbox or def
  PSL_CT_calcstringwidth
  PSL_CT_calclinedist
  PSL_CT_addcutpoints
  PSL_clippath PSL_firstcall and
  { V N clippath } if
  PSL_setlinepen
  /PSL_nn1 PSL_nn 1 sub def
  /n 0 def
  /k 0 def
  /j 0 def
  /PSL_seg 0 def
  /PSL_xp PSL_nn array def
  /PSL_yp PSL_nn array def
  PSL_xp 0 PSL_xx 0 get put
  PSL_yp 0 PSL_yy 0 get put
  1 1 PSL_nn1
  { /i exch def
    /node_type PSL_kind i get def
    /j j 1 add def
    PSL_xp j PSL_xx i get put
    PSL_yp j PSL_yy i get put
    node_type 1 eq
    { n 0 eq
      { PSL_CT_drawline }
      {	PSL_CT_reversepath
	PSL_CT_textline } ifelse
      /j 0 def
      PSL_xp j PSL_xx i get put
      PSL_yp j PSL_yy i get put
    } if
  } for
  n 0 eq {PSL_CT_drawline} if
  PSL_lastcall
  { PSL_clippath
    { clip /PSL_clip_on true def } if N
  } if
} def
/PSL_CT_textline
{ PSL_placetext
  { PSL_clippath
    { PSL_CT_clippath }
    { PSL_CT_placelabel } ifelse
  } if
  /n 0 def /k k 1 add def PSL_setlinepen
} def
/PSL_CT_calcstringwidth
{ /PSL_width PSL_m array def
  0 1 PSL_m1
  { /i exch def
    PSL_width i PSL_str i get stringwidth pop put
  } for
} def
/PSL_CT_calclinedist
{ /PSL_newx PSL_x 0 get def
  /PSL_newy PSL_y 0 get def
  /dist 0.0 def
  /PSL_dist PSL_n array def
  PSL_dist 0 0.0 put
  1 1 PSL_n1
  { /i exch def
    /PSL_oldx PSL_newx def
    /PSL_oldy PSL_newy def
    /PSL_newx PSL_x i get def
    /PSL_newy PSL_y i get def
    /dx PSL_newx PSL_oldx sub def
    /dy PSL_newy PSL_oldy sub def
    /dist dist dx dx mul dy dy mul add sqrt add def
    PSL_dist i dist put
  } for
} def
/PSL_CT_addcutpoints
{ /k 0 def
  /PSL_nc PSL_m 2 mul 1 add def
  /PSL_cuts PSL_nc array def
  /PSL_nc1 PSL_nc 1 sub def
  0 1 PSL_m1
  { /i exch def
    /dist PSL_dist PSL_node i get get def
    /halfwidth PSL_width i get 2 div PSL_gap_x add def
    PSL_cuts k dist halfwidth sub put
    /k k 1 add def
    PSL_cuts k dist halfwidth add put
    /k k 1 add def
  } for
  PSL_cuts k 100000.0 put
  /PSL_nn PSL_n PSL_m 2 mul add def
  /PSL_xx PSL_nn array def
  /PSL_yy PSL_nn array def
  /PSL_kind PSL_nn array def
  /j 0 def
  /k 0 def
  /dist 0.0 def
  0 1 PSL_n1
  { /i exch def
    /last_dist dist def
    /dist PSL_dist i get def
    k 1 PSL_nc1
    { /kk exch def
      /this_cut PSL_cuts kk get def
      dist this_cut gt
      { /ds dist last_dist sub def
	/f ds 0.0 eq {0.0} {dist this_cut sub ds div} ifelse def
	/i1 i 0 eq { 0 } { i 1 sub } ifelse def
	PSL_xx j PSL_x i get dup PSL_x i1 get sub f mul sub put
	PSL_yy j PSL_y i get dup PSL_y i1 get sub f mul sub put
	PSL_kind j 1 put
	/j j 1 add def
	/k k 1 add def
      } if
    } for
    dist PSL_cuts k get le
    { PSL_xx j PSL_x i get put PSL_yy j PSL_y i get put
      PSL_kind j 0 put
      /j j 1 add def
    } if
  } for
} def
/PSL_CT_reversepath
{ PSL_xp j get PSL_xp 0 get lt
  { 0 1 j 2 idiv
    { /left exch def
      /right j left sub def
      /tmp PSL_xp left get def
      PSL_xp left PSL_xp right get put
      PSL_xp right tmp put
      /tmp PSL_yp left get def
      PSL_yp left PSL_yp right get put
      PSL_yp right tmp put
    } for
  } if
} def
/PSL_CT_placelabel
{
  PSL_usebox
  { PSL_CT_clippath
    PSL_fillbox
    { V PSL_setboxrgb fill U } if
    PSL_drawbox
    { PSL_setboxpen S } if N
  } if
  PSL_settxtrgb PSL_CT_placeline PSL_str k get PSL_gap_x PSL_just PSL_height PSL_pathtext
} def
/PSL_CT_clippath
{
  /H PSL_height 2 div PSL_gap_y add def
  /xoff j 1 add array def
  /yoff j 1 add array def
  /angle 0 def
  0 1 j {
    /ii exch def
    /x PSL_xp ii get def
    /y PSL_yp ii get def
    ii 0 eq {
      /x1 PSL_xp 1 get def
      /y1 PSL_yp 1 get def
      /dx x1 x sub def
      /dy y1 y sub def
    }
    { /i1 ii 1 sub def
      /x1 PSL_xp i1 get def
      /y1 PSL_yp i1 get def
      /dx x x1 sub def
      /dy y y1 sub def
    } ifelse
    dx 0.0 ne dy 0.0 ne and
    { /angle dy dx atan 90 add def } if
    /sina angle sin def
    /cosa angle cos def
    xoff ii H cosa mul put
    yoff ii H sina mul put
  } for
  PSL_xp 0 get xoff 0 get add PSL_yp 0 get yoff 0 get add m
  1 1 j {
    /ii exch def
    PSL_xp ii get xoff ii get add PSL_yp ii get yoff ii get add L
  } for
  j -1 0 {
    /ii exch def
    PSL_xp ii get xoff ii get sub PSL_yp ii get yoff ii get sub L
  } for P
} def
/PSL_CT_drawline
{
  /str 20 string def
  PSL_strokeline
  { PSL_CT_placeline PSL_setlinepen S } if
  /PSL_seg PSL_seg 1 add def
  /n 1 def
} def
/PSL_CT_placeline
{ PSL_xp 0 get PSL_yp 0 get m
  1 1 j { /ii exch def PSL_xp ii get PSL_yp ii get L} for
} def
/PSL_straight_text_labels
{
  /bits exch def
  /PSL_clippath bits 1 and 0 eq def
  /PSL_rounded bits 16 and 16 eq def
  /PSL_fillbox bits 128 and 128 eq def
  /PSL_drawbox bits 256 and 256 eq def
  /PSL_m1 PSL_m 1 sub def
  /PSL_justx PSL_just 4 mod 1 sub 2 div neg def
  /PSL_justy PSL_just 4 idiv PSL_height mul 2 div neg def
  /PSL_usebox PSL_fillbox PSL_drawbox or def
  PSL_clippath
  { PSL_ST_clippath }
  { PSL_usebox { PSL_ST_clippath } if
    PSL_ST_placelabel
  } ifelse
} def
/PSL_ST_placelabel
{ PSL_settxtrgb
  0 1 PSL_m1
  { /k exch def
    /xp PSL_txt_x k get def
    /yp PSL_txt_y k get def
    V PSL_txt_x k get PSL_txt_y k get T
    PSL_angle k get R
    /BoxW PSL_str k get stringwidth pop def
    BoxW PSL_justx mul PSL_justy m
    PSL_str k get show
    U
  } for
} def
/PSL_ST_clippath
{ PSL_rounded { PSL_ST_clippath_round } { PSL_ST_clippath_rect } ifelse
  PSL_usebox
  { PSL_fillbox
    { V PSL_setboxrgb fill U } if
    PSL_drawbox
    { PSL_setboxpen S } if N
  }
  { clip /PSL_clip_on true def
  } ifelse
  N
} def
/PSL_ST_clippath_rect
{ N
  /BoxH PSL_height PSL_gap_y 2 mul add def
  /DelY BoxH BoxH 0 3 array astore def
  PSL_usebox not { V clippath } if
  0 1 PSL_m1
  { /k exch def
    /xp PSL_txt_x k get def
    /yp PSL_txt_y k get def
    /MAT PSL_angle k get matrix R def
    /BoxW PSL_str k get stringwidth pop PSL_gap_x 2 mul add def
    /x0 0 BoxW PSL_justx mul add def
    /y0 0 PSL_justy add PSL_gap_y sub def
    /DelX 0 BoxW BoxW 3 array astore def
    x0 y0 MAT transform
    /dy exch def /dx exch def
    xp dx add yp dy add m
    0 1 2
    {
      /ii exch def
      x0 DelX ii get add y0 DelY ii get add MAT transform
      /dy exch def /dx exch def
      xp dx add yp dy add L
    } for P
  } for
} def
/PSL_ST_clippath_round
{ N
  /PSL_justy2 PSL_just 4 idiv 2 div neg def
  /PSL_r PSL_gap_x PSL_gap_y lt { PSL_gap_x } { PSL_gap_y } ifelse def
  /PSL_dx PSL_gap_x PSL_r sub def
  /PSL_dy PSL_gap_y PSL_r sub def
  /PSL_r2 PSL_r 2 mul def
  /BoxH PSL_height PSL_dy 2 mul add def
  /y0 PSL_height PSL_gap_y 2 mul add PSL_justy2 mul def
  PSL_usebox not { V clippath } if
  0 1 PSL_m1
  { /k exch def
    /xp PSL_txt_x k get def
    /yp PSL_txt_y k get def
    /PSL_width PSL_str k get stringwidth pop def
    /BoxW PSL_width PSL_dx 2 mul add def
    /x0 BoxW PSL_justx mul def
    xp yp T PSL_angle k get R x0 y0 T
    0 0 m
    BoxW PSL_r add 0 BoxW PSL_r add PSL_r PSL_r arct
    BoxW PSL_r add BoxH PSL_r2 add BoxW BoxH PSL_r2 add PSL_r arct
    PSL_r neg BoxH PSL_r2 add PSL_r neg BoxH PSL_r add PSL_r arct
    PSL_r neg 0 0 0 PSL_r arct P
    x0 neg y0 neg T PSL_angle k get neg R xp neg yp neg T
  } for
} def
/PSL_clip_on false def
%%EndProlog

%%BeginSetup
/PSLevel /languagelevel where {pop languagelevel} {1} ifelse def
PSLevel 1 gt { << /PageSize [550 450] /ImagingBBox null >> setpagedevice } if
%%EndSetup

%%Page: 1 1

%%BeginPageSetup
550 0 T 90 R
0.24 0.24 scale
%%EndPageSetup

PSL_font_encode 0 get 0 eq {ISOLatin1+_Encoding /Helvetica /Helvetica PSL_reencode PSL_font_encode 0 1 put} if
PSL_font_encode 19 get 0 eq {ISOLatin1+_Encoding /Bookman-Light /Bookman-Light PSL_reencode PSL_font_encode 19 1 put} if
0 setlinecap
0 setlinejoin
3.32551 setmiterlimit
295.276 236.22 T

%% PostScript produced by:
%%GMT:  psbasemap -JX12c/8c -R110/140/3350/3600 -Y2c -K -Ba10:y@+*@+ (km):/a50:T@+*@+ (K):WS
%%PROJ: xy 110.00000000 140.00000000 3350.00000000 3600.00000000 110.000 140.000 3350.000 3600.000 +xy +a=6378137.000 +b=6356752.314245
S 0 A
90 R
/PSL_sign 1 def
/PSL_do_annot 1 def
/PSL_do_label 1 def
/PSL_do_A1 0 def
/PSL_TL1 24 def
/PSL_AO0 24 def
/PSL_AO1 24 def
/PSL_LO 35 def
/PSL_AF0 42 def
/PSL_AF1 67 def
/PSL_LF 42 def
/PSL_AH0 0 def
/PSL_AH1 0 def
0 0 M 42 F19 (M) E /PSL_dim_w exch def FP pathbbox N /PSL_dim_h exch def pop /PSL_dim_d exch def pop
PSL_dim_h PSL_dim_d sub /PSL_LH exch def
S 4 W
0 0 M 945 0 D S
S 2 W
0 0 M 0 24 D S
189 0 M 0 24 D S
378 0 M 0 24 D S
567 0 M 0 24 D S
756 0 M 0 24 D S
945 0 M 0 24 D S
0 0 M 42 F19 (3350) E /PSL_dim_w exch def FP pathbbox N /PSL_dim_h exch def pop /PSL_dim_d exch def pop
PSL_dim_w PSL_AH0 gt {/PSL_AH0 PSL_dim_w def} if
0 0 M 42 F19 (3400) E /PSL_dim_w exch def FP pathbbox N /PSL_dim_h exch def pop /PSL_dim_d exch def pop
PSL_dim_w PSL_AH0 gt {/PSL_AH0 PSL_dim_w def} if
0 0 M 42 F19 (3450) E /PSL_dim_w exch def FP pathbbox N /PSL_dim_h exch def pop /PSL_dim_d exch def pop
PSL_dim_w PSL_AH0 gt {/PSL_AH0 PSL_dim_w def} if
0 0 M 42 F19 (3500) E /PSL_dim_w exch def FP pathbbox N /PSL_dim_h exch def pop /PSL_dim_d exch def pop
PSL_dim_w PSL_AH0 gt {/PSL_AH0 PSL_dim_w def} if
0 0 M 42 F19 (3550) E /PSL_dim_w exch def FP pathbbox N /PSL_dim_h exch def pop /PSL_dim_d exch def pop
PSL_dim_w PSL_AH0 gt {/PSL_AH0 PSL_dim_w def} if
0 0 M 42 F19 (3600) E /PSL_dim_w exch def FP pathbbox N /PSL_dim_h exch def pop /PSL_dim_d exch def pop
PSL_dim_w PSL_AH0 gt {/PSL_AH0 PSL_dim_w def} if
0 0 M 0 12 D S
189 0 M 0 12 D S
378 0 M 0 12 D S
567 0 M 0 12 D S
756 0 M 0 12 D S
945 0 M 0 12 D S
/PSL_A0_y PSL_AO0 PSL_TL1 PSL_AO0 mul 0 gt {PSL_TL1 add} if PSL_AO0 0 gt {PSL_sign 0 lt {PSL_AH0} {0} ifelse add} if PSL_sign mul def
/PSL_A1_y PSL_A0_y abs PSL_AO1 add PSL_sign 0 lt {PSL_AH1} {PSL_AH0} ifelse add PSL_sign mul def
/PSL_L_y PSL_A1_y abs PSL_LO add PSL_sign 0 lt {PSL_LH} {PSL_AH1} ifelse add PSL_sign mul def
/PSL_x 0 def
PSL_x PSL_A0_y M
currentpoint /PSL_save_y exch def /PSL_save_x exch def
0 0 M 42 F19 (3350) E /PSL_dim_w exch def FP pathbbox N /PSL_dim_h exch def pop /PSL_dim_d exch def pop
PSL_save_x PSL_save_y m
V -90 R PSL_dim_w neg PSL_dim_h 2 div neg G 42 F19 (3350) Z U
/PSL_x 189 def
PSL_x PSL_A0_y M
currentpoint /PSL_save_y exch def /PSL_save_x exch def
0 0 M 42 F19 (3400) E /PSL_dim_w exch def FP pathbbox N /PSL_dim_h exch def pop /PSL_dim_d exch def pop
PSL_save_x PSL_save_y m
V -90 R PSL_dim_w neg PSL_dim_h 2 div neg G 42 F19 (3400) Z U
/PSL_x 378 def
PSL_x PSL_A0_y M
currentpoint /PSL_save_y exch def /PSL_save_x exch def
0 0 M 42 F19 (3450) E /PSL_dim_w exch def FP pathbbox N /PSL_dim_h exch def pop /PSL_dim_d exch def pop
PSL_save_x PSL_save_y m
V -90 R PSL_dim_w neg PSL_dim_h 2 div neg G 42 F19 (3450) Z U
/PSL_x 567 def
PSL_x PSL_A0_y M
currentpoint /PSL_save_y exch def /PSL_save_x exch def
0 0 M 42 F19 (3500) E /PSL_dim_w exch def FP pathbbox N /PSL_dim_h exch def pop /PSL_dim_d exch def pop
PSL_save_x PSL_save_y m
V -90 R PSL_dim_w neg PSL_dim_h 2 div neg G 42 F19 (3500) Z U
/PSL_x 756 def
PSL_x PSL_A0_y M
currentpoint /PSL_save_y exch def /PSL_save_x exch def
0 0 M 42 F19 (3550) E /PSL_dim_w exch def FP pathbbox N /PSL_dim_h exch def pop /PSL_dim_d exch def pop
PSL_save_x PSL_save_y m
V -90 R PSL_dim_w neg PSL_dim_h 2 div neg G 42 F19 (3550) Z U
/PSL_x 945 def
PSL_x PSL_A0_y M
currentpoint /PSL_save_y exch def /PSL_save_x exch def
0 0 M 42 F19 (3600) E /PSL_dim_w exch def FP pathbbox N /PSL_dim_h exch def pop /PSL_dim_d exch def pop
PSL_save_x PSL_save_y m
V -90 R PSL_dim_w neg PSL_dim_h 2 div neg G 42 F19 (3600) Z U
/PSL_x 472 def
N 0 0 m 42 F19 (T) FP 29 F19 (*) FP 42 F19 ( \(K\)) FP pathbbox N /PSL_dim_h exch def exch /PSL_dim_d exch def add /PSL_dim_w exch def
PSL_x PSL_L_y M
currentpoint /PSL_save_y exch def /PSL_save_x exch def
N 0 0 m 42 F19 (T) FP 29 F19 (*) FP 42 F19 ( \(K\)) FP pathbbox N /PSL_dim_h exch def exch /PSL_dim_d exch def add /PSL_dim_w exch def
PSL_save_x PSL_save_y m
PSL_dim_w 2 div neg 0 G 42 F19 (T) Z
0 15 G
29 F19 (*) Z
0 -15 G
42 F19 ( \(K\)) Z
-90 R
/PSL_sign -1 def
/PSL_do_annot 1 def
/PSL_do_label 1 def
/PSL_do_A1 0 def
/PSL_TL1 24 def
/PSL_AO0 24 def
/PSL_AO1 24 def
/PSL_LO 35 def
/PSL_AF0 42 def
/PSL_AF1 67 def
/PSL_LF 42 def
/PSL_AH0 0 def
/PSL_AH1 0 def
0 0 M 42 F19 (M) E /PSL_dim_w exch def FP pathbbox N /PSL_dim_h exch def pop /PSL_dim_d exch def pop
PSL_dim_h PSL_dim_d sub /PSL_LH exch def
S 4 W
0 0 M 1417 0 D S
S 2 W
0 0 M 0 -24 D S
472 0 M 0 -24 D S
945 0 M 0 -24 D S
1417 0 M 0 -24 D S
0 0 M 42 F19 (110) E /PSL_dim_w exch def FP pathbbox N /PSL_dim_h exch def pop /PSL_dim_d exch def pop
PSL_dim_h PSL_AH0 gt {/PSL_AH0 PSL_dim_h def} if
0 0 M 42 F19 (120) E /PSL_dim_w exch def FP pathbbox N /PSL_dim_h exch def pop /PSL_dim_d exch def pop
PSL_dim_h PSL_AH0 gt {/PSL_AH0 PSL_dim_h def} if
0 0 M 42 F19 (130) E /PSL_dim_w exch def FP pathbbox N /PSL_dim_h exch def pop /PSL_dim_d exch def pop
PSL_dim_h PSL_AH0 gt {/PSL_AH0 PSL_dim_h def} if
0 0 M 42 F19 (140) E /PSL_dim_w exch def FP pathbbox N /PSL_dim_h exch def pop /PSL_dim_d exch def pop
PSL_dim_h PSL_AH0 gt {/PSL_AH0 PSL_dim_h def} if
0 0 M 0 -12 D S
472 0 M 0 -12 D S
945 0 M 0 -12 D S
1417 0 M 0 -12 D S
/PSL_A0_y PSL_AO0 PSL_TL1 PSL_AO0 mul 0 gt {PSL_TL1 add} if PSL_AO0 0 gt {PSL_sign 0 lt {PSL_AH0} {0} ifelse add} if PSL_sign mul def
/PSL_A1_y PSL_A0_y abs PSL_AO1 add PSL_sign 0 lt {PSL_AH1} {PSL_AH0} ifelse add PSL_sign mul def
/PSL_L_y PSL_A1_y abs PSL_LO add PSL_sign 0 lt {PSL_LH} {PSL_AH1} ifelse add PSL_sign mul def
/PSL_x 0 def
PSL_x PSL_A0_y M
currentpoint /PSL_save_y exch def /PSL_save_x exch def
0 0 M 42 F19 (110) E /PSL_dim_w exch def FP pathbbox N /PSL_dim_h exch def pop /PSL_dim_d exch def pop
PSL_save_x PSL_save_y m
PSL_dim_w 2 div neg 0 G 42 F19 (110) Z
/PSL_x 472 def
PSL_x PSL_A0_y M
currentpoint /PSL_save_y exch def /PSL_save_x exch def
0 0 M 42 F19 (120) E /PSL_dim_w exch def FP pathbbox N /PSL_dim_h exch def pop /PSL_dim_d exch def pop
PSL_save_x PSL_save_y m
PSL_dim_w 2 div neg 0 G 42 F19 (120) Z
/PSL_x 945 def
PSL_x PSL_A0_y M
currentpoint /PSL_save_y exch def /PSL_save_x exch def
0 0 M 42 F19 (130) E /PSL_dim_w exch def FP pathbbox N /PSL_dim_h exch def pop /PSL_dim_d exch def pop
PSL_save_x PSL_save_y m
PSL_dim_w 2 div neg 0 G 42 F19 (130) Z
/PSL_x 1417 def
PSL_x PSL_A0_y M
currentpoint /PSL_save_y exch def /PSL_save_x exch def
0 0 M 42 F19 (140) E /PSL_dim_w exch def FP pathbbox N /PSL_dim_h exch def pop /PSL_dim_d exch def pop
PSL_save_x PSL_save_y m
PSL_dim_w 2 div neg 0 G 42 F19 (140) Z
/PSL_x 709 def
N 0 0 m 42 F19 (y) FP 29 F19 (*) FP 42 F19 ( \(km\)) FP pathbbox N /PSL_dim_h exch def exch /PSL_dim_d exch def add /PSL_dim_w exch def
PSL_x PSL_L_y M
currentpoint /PSL_save_y exch def /PSL_save_x exch def
N 0 0 m 42 F19 (y) FP 29 F19 (*) FP 42 F19 ( \(km\)) FP pathbbox N /PSL_dim_h exch def exch /PSL_dim_d exch def add /PSL_dim_w exch def
PSL_save_x PSL_save_y m
PSL_dim_w 2 div neg 0 G 42 F19 (y) Z
0 15 G
29 F19 (*) Z
0 -15 G
42 F19 ( \(km\)) Z
S 0 A
PSL_font_encode 0 get 0 eq {ISOLatin1+_Encoding /Helvetica /Helvetica PSL_reencode PSL_font_encode 0 1 put} if
PSL_font_encode 19 get 0 eq {ISOLatin1+_Encoding /Bookman-Light /Bookman-Light PSL_reencode PSL_font_encode 19 1 put} if
0 setlinecap
0 setlinejoin
3.32551 setmiterlimit

%% PostScript produced by:
%%GMT:  psxy -JX12c/8c -R110/140/3350/3600 -K -O -W2
%%PROJ: xy 110.00000000 140.00000000 3350.00000000 3600.00000000 110.000 140.000 3350.000 3600.000 +xy +a=6378137.000 +b=6356752.314245
S 2 W
S 0 A
0 92 M
6 1 D
18 0 D
6 1 D
11 0 D
6 1 D
12 0 D
6 1 D
6 0 D
6 1 D
6 0 D
6 1 D
5 0 D
6 1 D
6 0 D
6 1 D
6 0 D
12 2 D
6 0 D
18 3 D
5 1 D
6 0 D
42 7 D
6 2 D
6 1 D
5 1 D
6 2 D
12 2 D
12 4 D
6 1 D
18 6 D
5 1 D
6 2 D
6 3 D
18 6 D
6 3 D
6 2 D
6 3 D
6 2 D
6 3 D
5 3 D
18 9 D
6 4 D
12 6 D
18 12 D
5 4 D
18 12 D
6 5 D
6 4 D
30 25 D
5 6 D
6 5 D
6 6 D
6 5 D
18 18 D
6 7 D
12 12 D
5 7 D
6 7 D
6 6 D
18 21 D
6 8 D
12 14 D
6 8 D
6 7 D
5 8 D
6 7 D
6 8 D
6 7 D
18 24 D
6 7 D
12 16 D
6 7 D
5 8 D
6 8 D
6 7 D
6 8 D
6 7 D
6 8 D
12 14 D
6 8 D
6 7 D
5 7 D
12 14 D
6 6 D
6 7 D
6 6 D
6 7 D
35 35 D
12 10 D
6 6 D
6 5 D
6 4 D
12 10 D
6 4 D
5 4 D
30 20 D
12 6 D
6 4 D
12 6 D
5 3 D
6 2 D
12 6 D
12 4 D
6 3 D
24 8 D
5 2 D
6 1 D
12 4 D
6 1 D
6 2 D
12 2 D
6 2 D
6 1 D
5 1 D
54 9 D
6 0 D
5 1 D
6 1 D
6 0 D
12 2 D
6 0 D
6 1 D
6 0 D
6 1 D
11 0 D
6 1 D
6 0 D
6 1 D
12 0 D
6 1 D
12 0 D
6 1 D
17 0 D
6 1 D
24 0 D
6 1 D
35 0 D
6 1 D
53 0 D
6 1 D
53 0 D
S
S 0 A
PSL_font_encode 0 get 0 eq {ISOLatin1+_Encoding /Helvetica /Helvetica PSL_reencode PSL_font_encode 0 1 put} if
PSL_font_encode 19 get 0 eq {ISOLatin1+_Encoding /Bookman-Light /Bookman-Light PSL_reencode PSL_font_encode 19 1 put} if
0 setlinecap
0 setlinejoin
3.32551 setmiterlimit

%% PostScript produced by:
%%GMT:  psxy -JX12c/8c -R110/140/3350/3600 -K -O -W1,-
%%PROJ: xy 110.00000000 140.00000000 3350.00000000 3600.00000000 110.000 140.000 3350.000 3600.000 +xy +a=6378137.000 +b=6356752.314245
S 1 W
S [8 4] 0 B
S 0 A
709 0 M
0 945 D
S
S [] 0 B
S 0 A
PSL_font_encode 0 get 0 eq {ISOLatin1+_Encoding /Helvetica /Helvetica PSL_reencode PSL_font_encode 0 1 put} if
PSL_font_encode 19 get 0 eq {ISOLatin1+_Encoding /Bookman-Light /Bookman-Light PSL_reencode PSL_font_encode 19 1 put} if
0 setlinecap
0 setlinejoin
3.32551 setmiterlimit

%% PostScript produced by:
%%GMT:  psxy -JX12c/8c -R110/140/3350/3600 -K -O -W1,-
%%PROJ: xy 110.00000000 140.00000000 3350.00000000 3600.00000000 110.000 140.000 3350.000 3600.000 +xy +a=6378137.000 +b=6356752.314245
S 1 W
S [8 4] 0 B
S 0 A
1417 764 M
-1417 0 D
S
S [] 0 B
S 0 A
PSL_font_encode 0 get 0 eq {ISOLatin1+_Encoding /Helvetica /Helvetica PSL_reencode PSL_font_encode 0 1 put} if
PSL_font_encode 19 get 0 eq {ISOLatin1+_Encoding /Bookman-Light /Bookman-Light PSL_reencode PSL_font_encode 19 1 put} if
0 setlinecap
0 setlinejoin
3.32551 setmiterlimit

%% PostScript produced by:
%%GMT:  psbasemap -JX12c/8c -R0.44/0.56/3350/3600 -K -O -Ba0.05:y:/a50:T:EN
%%PROJ: xy 0.44000000 0.56000000 3350.00000000 3600.00000000 0.440 0.560 3350.000 3600.000 +xy +a=6378137.000 +b=6356752.314245
S 0 A
1417.32 0 T 90 R
/PSL_sign -1 def
/PSL_do_annot 1 def
/PSL_do_label 1 def
/PSL_do_A1 0 def
/PSL_TL1 24 def
/PSL_AO0 24 def
/PSL_AO1 24 def
/PSL_LO 35 def
/PSL_AF0 42 def
/PSL_AF1 67 def
/PSL_LF 42 def
/PSL_AH0 0 def
/PSL_AH1 0 def
0 0 M 42 F19 (M) E /PSL_dim_w exch def FP pathbbox N /PSL_dim_h exch def pop /PSL_dim_d exch def pop
PSL_dim_h PSL_dim_d sub /PSL_LH exch def
S 4 W
0 0 M 945 0 D S
S 2 W
0 0 M 0 -24 D S
189 0 M 0 -24 D S
378 0 M 0 -24 D S
567 0 M 0 -24 D S
756 0 M 0 -24 D S
945 0 M 0 -24 D S
0 0 M 42 F19 (3350) E /PSL_dim_w exch def FP pathbbox N /PSL_dim_h exch def pop /PSL_dim_d exch def pop
PSL_dim_w PSL_AH0 gt {/PSL_AH0 PSL_dim_w def} if
0 0 M 42 F19 (3400) E /PSL_dim_w exch def FP pathbbox N /PSL_dim_h exch def pop /PSL_dim_d exch def pop
PSL_dim_w PSL_AH0 gt {/PSL_AH0 PSL_dim_w def} if
0 0 M 42 F19 (3450) E /PSL_dim_w exch def FP pathbbox N /PSL_dim_h exch def pop /PSL_dim_d exch def pop
PSL_dim_w PSL_AH0 gt {/PSL_AH0 PSL_dim_w def} if
0 0 M 42 F19 (3500) E /PSL_dim_w exch def FP pathbbox N /PSL_dim_h exch def pop /PSL_dim_d exch def pop
PSL_dim_w PSL_AH0 gt {/PSL_AH0 PSL_dim_w def} if
0 0 M 42 F19 (3550) E /PSL_dim_w exch def FP pathbbox N /PSL_dim_h exch def pop /PSL_dim_d exch def pop
PSL_dim_w PSL_AH0 gt {/PSL_AH0 PSL_dim_w def} if
0 0 M 42 F19 (3600) E /PSL_dim_w exch def FP pathbbox N /PSL_dim_h exch def pop /PSL_dim_d exch def pop
PSL_dim_w PSL_AH0 gt {/PSL_AH0 PSL_dim_w def} if
0 0 M 0 -12 D S
189 0 M 0 -12 D S
378 0 M 0 -12 D S
567 0 M 0 -12 D S
756 0 M 0 -12 D S
945 0 M 0 -12 D S
/PSL_A0_y PSL_AO0 PSL_TL1 PSL_AO0 mul 0 gt {PSL_TL1 add} if PSL_AO0 0 gt {PSL_sign 0 lt {PSL_AH0} {0} ifelse add} if PSL_sign mul def
/PSL_A1_y PSL_A0_y abs PSL_AO1 add PSL_sign 0 lt {PSL_AH1} {PSL_AH0} ifelse add PSL_sign mul def
/PSL_L_y PSL_A1_y abs PSL_LO add PSL_sign 0 lt {PSL_LH} {PSL_AH1} ifelse add PSL_sign mul def
/PSL_x 0 def
PSL_x PSL_A0_y M
currentpoint /PSL_save_y exch def /PSL_save_x exch def
0 0 M 42 F19 (3350) E /PSL_dim_w exch def FP pathbbox N /PSL_dim_h exch def pop /PSL_dim_d exch def pop
PSL_save_x PSL_save_y m
V -90 R PSL_dim_w neg PSL_dim_h 2 div neg G 42 F19 (3350) Z U
/PSL_x 189 def
PSL_x PSL_A0_y M
currentpoint /PSL_save_y exch def /PSL_save_x exch def
0 0 M 42 F19 (3400) E /PSL_dim_w exch def FP pathbbox N /PSL_dim_h exch def pop /PSL_dim_d exch def pop
PSL_save_x PSL_save_y m
V -90 R PSL_dim_w neg PSL_dim_h 2 div neg G 42 F19 (3400) Z U
/PSL_x 378 def
PSL_x PSL_A0_y M
currentpoint /PSL_save_y exch def /PSL_save_x exch def
0 0 M 42 F19 (3450) E /PSL_dim_w exch def FP pathbbox N /PSL_dim_h exch def pop /PSL_dim_d exch def pop
PSL_save_x PSL_save_y m
V -90 R PSL_dim_w neg PSL_dim_h 2 div neg G 42 F19 (3450) Z U
/PSL_x 567 def
PSL_x PSL_A0_y M
currentpoint /PSL_save_y exch def /PSL_save_x exch def
0 0 M 42 F19 (3500) E /PSL_dim_w exch def FP pathbbox N /PSL_dim_h exch def pop /PSL_dim_d exch def pop
PSL_save_x PSL_save_y m
V -90 R PSL_dim_w neg PSL_dim_h 2 div neg G 42 F19 (3500) Z U
/PSL_x 756 def
PSL_x PSL_A0_y M
currentpoint /PSL_save_y exch def /PSL_save_x exch def
0 0 M 42 F19 (3550) E /PSL_dim_w exch def FP pathbbox N /PSL_dim_h exch def pop /PSL_dim_d exch def pop
PSL_save_x PSL_save_y m
V -90 R PSL_dim_w neg PSL_dim_h 2 div neg G 42 F19 (3550) Z U
/PSL_x 945 def
PSL_x PSL_A0_y M
currentpoint /PSL_save_y exch def /PSL_save_x exch def
0 0 M 42 F19 (3600) E /PSL_dim_w exch def FP pathbbox N /PSL_dim_h exch def pop /PSL_dim_d exch def pop
PSL_save_x PSL_save_y m
V -90 R PSL_dim_w neg PSL_dim_h 2 div neg G 42 F19 (3600) Z U
/PSL_x 472 def
0 0 M 42 F19 (T) E /PSL_dim_w exch def FP pathbbox N /PSL_dim_h exch def pop /PSL_dim_d exch def pop
PSL_x PSL_L_y M
currentpoint /PSL_save_y exch def /PSL_save_x exch def
0 0 M 42 F19 (T) E /PSL_dim_w exch def FP pathbbox N /PSL_dim_h exch def pop /PSL_dim_d exch def pop
PSL_save_x PSL_save_y m
PSL_dim_w 2 div neg 0 G 42 F19 (T) Z
-90 R -1417.32 0 T
0 944.882 T
/PSL_sign 1 def
/PSL_do_annot 1 def
/PSL_do_label 1 def
/PSL_do_A1 0 def
/PSL_TL1 24 def
/PSL_AO0 24 def
/PSL_AO1 24 def
/PSL_LO 35 def
/PSL_AF0 42 def
/PSL_AF1 67 def
/PSL_LF 42 def
/PSL_AH0 0 def
/PSL_AH1 0 def
0 0 M 42 F19 (M) E /PSL_dim_w exch def FP pathbbox N /PSL_dim_h exch def pop /PSL_dim_d exch def pop
PSL_dim_h PSL_dim_d sub /PSL_LH exch def
S 4 W
0 0 M 1417 0 D S
S 2 W
118 0 M 0 24 D S
709 0 M 0 24 D S
1299 0 M 0 24 D S
0 0 M 42 F19 (0.45) E /PSL_dim_w exch def FP pathbbox N /PSL_dim_h exch def pop /PSL_dim_d exch def pop
PSL_dim_h PSL_AH0 gt {/PSL_AH0 PSL_dim_h def} if
0 0 M 42 F19 (0.50) E /PSL_dim_w exch def FP pathbbox N /PSL_dim_h exch def pop /PSL_dim_d exch def pop
PSL_dim_h PSL_AH0 gt {/PSL_AH0 PSL_dim_h def} if
0 0 M 42 F19 (0.55) E /PSL_dim_w exch def FP pathbbox N /PSL_dim_h exch def pop /PSL_dim_d exch def pop
PSL_dim_h PSL_AH0 gt {/PSL_AH0 PSL_dim_h def} if
118 0 M 0 12 D S
709 0 M 0 12 D S
1299 0 M 0 12 D S
/PSL_A0_y PSL_AO0 PSL_TL1 PSL_AO0 mul 0 gt {PSL_TL1 add} if PSL_AO0 0 gt {PSL_sign 0 lt {PSL_AH0} {0} ifelse add} if PSL_sign mul def
/PSL_A1_y PSL_A0_y abs PSL_AO1 add PSL_sign 0 lt {PSL_AH1} {PSL_AH0} ifelse add PSL_sign mul def
/PSL_L_y PSL_A1_y abs PSL_LO add PSL_sign 0 lt {PSL_LH} {PSL_AH1} ifelse add PSL_sign mul def
/PSL_x 118 def
PSL_x PSL_A0_y M
currentpoint /PSL_save_y exch def /PSL_save_x exch def
0 0 M 42 F19 (0.45) E /PSL_dim_w exch def FP pathbbox N /PSL_dim_h exch def pop /PSL_dim_d exch def pop
PSL_save_x PSL_save_y m
PSL_dim_w 2 div neg 0 G 42 F19 (0.45) Z
/PSL_x 709 def
PSL_x PSL_A0_y M
currentpoint /PSL_save_y exch def /PSL_save_x exch def
0 0 M 42 F19 (0.50) E /PSL_dim_w exch def FP pathbbox N /PSL_dim_h exch def pop /PSL_dim_d exch def pop
PSL_save_x PSL_save_y m
PSL_dim_w 2 div neg 0 G 42 F19 (0.50) Z
/PSL_x 1299 def
PSL_x PSL_A0_y M
currentpoint /PSL_save_y exch def /PSL_save_x exch def
0 0 M 42 F19 (0.55) E /PSL_dim_w exch def FP pathbbox N /PSL_dim_h exch def pop /PSL_dim_d exch def pop
PSL_save_x PSL_save_y m
PSL_dim_w 2 div neg 0 G 42 F19 (0.55) Z
/PSL_x 709 def
0 0 M 42 F19 (y) E /PSL_dim_w exch def FP pathbbox N /PSL_dim_h exch def pop /PSL_dim_d exch def pop
PSL_x PSL_L_y M
currentpoint /PSL_save_y exch def /PSL_save_x exch def
0 0 M 42 F19 (y) E /PSL_dim_w exch def FP pathbbox N /PSL_dim_h exch def pop /PSL_dim_d exch def pop
PSL_save_x PSL_save_y m
PSL_dim_w 2 div neg 0 G 42 F19 (y) Z
0 -944.882 T
S 0 A
PSL_font_encode 0 get 0 eq {ISOLatin1+_Encoding /Helvetica /Helvetica PSL_reencode PSL_font_encode 0 1 put} if
PSL_font_encode 19 get 0 eq {ISOLatin1+_Encoding /Bookman-Light /Bookman-Light PSL_reencode PSL_font_encode 19 1 put} if
0 setlinecap
0 setlinejoin
3.32551 setmiterlimit

%% PostScript produced by:
%%GMT:  psxy -JX12c/8c -R0.44/0.56/3350/3600 -K -O -W1 -Sc0.1 -Ggreen
%%PROJ: xy 0.44000000 0.56000000 3350.00000000 3600.00000000 0.440 0.560 3350.000 3600.000 +xy +a=6378137.000 +b=6356752.314245
S V
0 0 M
1417 0 D
0 945 D
-1417 0 D
eoclip N
S 1 W
S 0 A
{0 1 0 C} FS
O1
6 11 93 SC
6 22 93 SC
6 34 94 SC
6 46 95 SC
6 58 95 SC
6 70 96 SC
6 81 97 SC
6 93 98 SC
6 105 99 SC
6 117 100 SC
6 129 102 SC
6 141 103 SC
6 152 105 SC
6 164 106 SC
6 176 108 SC
6 188 110 SC
6 200 112 SC
6 211 114 SC
6 223 117 SC
6 235 120 SC
6 247 123 SC
6 259 126 SC
6 270 129 SC
6 282 133 SC
6 294 137 SC
6 306 141 SC
6 318 146 SC
6 330 151 SC
6 341 157 SC
6 353 162 SC
6 365 169 SC
6 377 175 SC
6 389 182 SC
6 400 190 SC
6 412 198 SC
6 424 206 SC
6 436 215 SC
6 448 225 SC
6 459 235 SC
6 471 245 SC
6 483 256 SC
6 495 268 SC
6 507 280 SC
6 519 293 SC
6 530 306 SC
6 542 319 SC
6 554 333 SC
6 566 347 SC
6 578 362 SC
6 589 377 SC
6 601 392 SC
6 613 407 SC
6 625 422 SC
6 637 438 SC
6 648 453 SC
6 660 469 SC
6 672 484 SC
6 684 499 SC
6 696 514 SC
6 707 528 SC
6 719 542 SC
6 731 556 SC
6 743 569 SC
6 755 582 SC
6 767 595 SC
6 778 606 SC
6 790 618 SC
6 802 628 SC
6 814 639 SC
6 826 648 SC
6 837 657 SC
6 849 666 SC
6 861 673 SC
6 873 681 SC
6 885 688 SC
6 896 694 SC
6 908 700 SC
6 920 705 SC
6 932 711 SC
6 944 715 SC
6 956 719 SC
6 967 723 SC
6 979 727 SC
6 991 730 SC
6 1003 733 SC
6 1015 736 SC
6 1026 739 SC
6 1038 741 SC
6 1050 743 SC
6 1062 745 SC
6 1074 747 SC
6 1085 748 SC
6 1097 750 SC
6 1109 751 SC
6 1121 752 SC
6 1133 753 SC
6 1144 754 SC
6 1156 755 SC
6 1168 756 SC
6 1180 757 SC
6 1192 758 SC
6 1204 758 SC
6 1215 759 SC
6 1227 759 SC
6 1239 760 SC
6 1251 760 SC
6 1263 761 SC
6 1274 761 SC
6 1286 761 SC
6 1298 761 SC
6 1310 762 SC
6 1322 762 SC
6 1333 762 SC
6 1345 762 SC
6 1357 762 SC
6 1369 763 SC
6 1381 763 SC
6 1393 763 SC
6 1404 763 SC
6 1416 763 SC
S U
S [] 0 B
S 0 A
PSL_font_encode 0 get 0 eq {ISOLatin1+_Encoding /Helvetica /Helvetica PSL_reencode PSL_font_encode 0 1 put} if
PSL_font_encode 19 get 0 eq {ISOLatin1+_Encoding /Bookman-Light /Bookman-Light PSL_reencode PSL_font_encode 19 1 put} if
0 setlinecap
0 setlinejoin
3.32551 setmiterlimit

%% PostScript produced by:
%%GMT:  pstext -JX12c/8c -R0.44/0.56/3350/3600 -K -O
%%PROJ: xy 0.44000000 0.56000000 3350.00000000 3600.00000000 0.440 0.560 3350.000 3600.000 +xy +a=6378137.000 +b=6356752.314245
S 0 W
S 0 A
S V
0 0 M
1417 0 D
0 945 D
-1417 0 D
eoclip N
0 0 M 38 F0 (a\)) E /PSL_dim_w exch def FP pathbbox N /PSL_dim_h exch def pop /PSL_dim_d exch def pop
24 19 M 0 PSL_dim_h 2 div neg G 38 F0 (a\)) Z
S U
S [] 0 B
S 0 A
PSL_font_encode 0 get 0 eq {ISOLatin1+_Encoding /Helvetica /Helvetica PSL_reencode PSL_font_encode 0 1 put} if
PSL_font_encode 19 get 0 eq {ISOLatin1+_Encoding /Bookman-Light /Bookman-Light PSL_reencode PSL_font_encode 19 1 put} if
0 setlinecap
0 setlinejoin
3.32551 setmiterlimit

%% PostScript produced by:
%%GMT:  psxy -JX12c/8c -R0.44/0.56/3350/3600 -K -O -W1
%%PROJ: xy 0.44000000 0.56000000 3350.00000000 3600.00000000 0.440 0.560 3350.000 3600.000 +xy +a=6378137.000 +b=6356752.314245
S 1 W
S 0 A
35 643 M
48 0 D
S
S 0 A
PSL_font_encode 0 get 0 eq {ISOLatin1+_Encoding /Helvetica /Helvetica PSL_reencode PSL_font_encode 0 1 put} if
PSL_font_encode 19 get 0 eq {ISOLatin1+_Encoding /Bookman-Light /Bookman-Light PSL_reencode PSL_font_encode 19 1 put} if
0 setlinecap
0 setlinejoin
3.32551 setmiterlimit

%% PostScript produced by:
%%GMT:  psxy -JX12c/8c -R0.44/0.56/3350/3600 -K -O -W1 -Sc0.1 -Ggreen
%%PROJ: xy 0.44000000 0.56000000 3350.00000000 3600.00000000 0.440 0.560 3350.000 3600.000 +xy +a=6378137.000 +b=6356752.314245
S V
0 0 M
1417 0 D
0 945 D
-1417 0 D
eoclip N
S 1 W
S 0 A
{0 1 0 C} FS
O1
6 35 567 SC
6 47 567 SC
6 59 567 SC
6 71 567 SC
6 83 567 SC
S U
S [] 0 B
S 0 A
PSL_font_encode 0 get 0 eq {ISOLatin1+_Encoding /Helvetica /Helvetica PSL_reencode PSL_font_encode 0 1 put} if
PSL_font_encode 19 get 0 eq {ISOLatin1+_Encoding /Bookman-Light /Bookman-Light PSL_reencode PSL_font_encode 19 1 put} if
0 setlinecap
0 setlinejoin
3.32551 setmiterlimit

%% PostScript produced by:
%%GMT:  pstext -JX12c/8c -R0.44/0.56/3350/3600 -K -O
%%PROJ: xy 0.44000000 0.56000000 3350.00000000 3600.00000000 0.440 0.560 3350.000 3600.000 +xy +a=6378137.000 +b=6356752.314245
S 0 W
S 0 A
S V
0 0 M
1417 0 D
0 945 D
-1417 0 D
eoclip N
N 0 0 m 38 F0 (T) FP 38 F12 (*) FP 38 F0 (\(z) FP 38 F12 (*) FP 38 F0 (\)) FP pathbbox N /PSL_dim_h exch def exch /PSL_dim_d exch def add /PSL_dim_w exch def
106 643 M 0 PSL_dim_h 2 div neg G 38 F0 (T) Z
38 F12 (*) Z
38 F0 (\(z) Z
38 F12 (*) Z
38 F0 (\)) Z
0 0 M 38 F0 (T\(z\)) E /PSL_dim_w exch def FP pathbbox N /PSL_dim_h exch def pop /PSL_dim_d exch def pop
106 567 M 0 PSL_dim_h 2 div neg G 38 F0 (T\(z\)) Z
S U
S [] 0 B
S 0 A
PSL_font_encode 0 get 0 eq {ISOLatin1+_Encoding /Helvetica /Helvetica PSL_reencode PSL_font_encode 0 1 put} if
PSL_font_encode 19 get 0 eq {ISOLatin1+_Encoding /Bookman-Light /Bookman-Light PSL_reencode PSL_font_encode 19 1 put} if
0 setlinecap
0 setlinejoin
3.32551 setmiterlimit
0 944.882 T

%% PostScript produced by:
%%GMT:  psbasemap -JX12c/8c -R0.44/0.56/3350/3600 -y8c -K -O -Ba0.05:y:/a50:T:WNe
%%PROJ: xy 0.44000000 0.56000000 3350.00000000 3600.00000000 0.440 0.560 3350.000 3600.000 +xy +a=6378137.000 +b=6356752.314245
S 0 A
90 R
/PSL_sign 1 def
/PSL_do_annot 1 def
/PSL_do_label 1 def
/PSL_do_A1 0 def
/PSL_TL1 24 def
/PSL_AO0 24 def
/PSL_AO1 24 def
/PSL_LO 35 def
/PSL_AF0 42 def
/PSL_AF1 67 def
/PSL_LF 42 def
/PSL_AH0 0 def
/PSL_AH1 0 def
0 0 M 42 F19 (M) E /PSL_dim_w exch def FP pathbbox N /PSL_dim_h exch def pop /PSL_dim_d exch def pop
PSL_dim_h PSL_dim_d sub /PSL_LH exch def
S 4 W
0 0 M 945 0 D S
S 2 W
0 0 M 0 24 D S
189 0 M 0 24 D S
378 0 M 0 24 D S
567 0 M 0 24 D S
756 0 M 0 24 D S
945 0 M 0 24 D S
0 0 M 42 F19 (3350) E /PSL_dim_w exch def FP pathbbox N /PSL_dim_h exch def pop /PSL_dim_d exch def pop
PSL_dim_w PSL_AH0 gt {/PSL_AH0 PSL_dim_w def} if
0 0 M 42 F19 (3400) E /PSL_dim_w exch def FP pathbbox N /PSL_dim_h exch def pop /PSL_dim_d exch def pop
PSL_dim_w PSL_AH0 gt {/PSL_AH0 PSL_dim_w def} if
0 0 M 42 F19 (3450) E /PSL_dim_w exch def FP pathbbox N /PSL_dim_h exch def pop /PSL_dim_d exch def pop
PSL_dim_w PSL_AH0 gt {/PSL_AH0 PSL_dim_w def} if
0 0 M 42 F19 (3500) E /PSL_dim_w exch def FP pathbbox N /PSL_dim_h exch def pop /PSL_dim_d exch def pop
PSL_dim_w PSL_AH0 gt {/PSL_AH0 PSL_dim_w def} if
0 0 M 42 F19 (3550) E /PSL_dim_w exch def FP pathbbox N /PSL_dim_h exch def pop /PSL_dim_d exch def pop
PSL_dim_w PSL_AH0 gt {/PSL_AH0 PSL_dim_w def} if
0 0 M 42 F19 (3600) E /PSL_dim_w exch def FP pathbbox N /PSL_dim_h exch def pop /PSL_dim_d exch def pop
PSL_dim_w PSL_AH0 gt {/PSL_AH0 PSL_dim_w def} if
0 0 M 0 12 D S
189 0 M 0 12 D S
378 0 M 0 12 D S
567 0 M 0 12 D S
756 0 M 0 12 D S
945 0 M 0 12 D S
/PSL_A0_y PSL_AO0 PSL_TL1 PSL_AO0 mul 0 gt {PSL_TL1 add} if PSL_AO0 0 gt {PSL_sign 0 lt {PSL_AH0} {0} ifelse add} if PSL_sign mul def
/PSL_A1_y PSL_A0_y abs PSL_AO1 add PSL_sign 0 lt {PSL_AH1} {PSL_AH0} ifelse add PSL_sign mul def
/PSL_L_y PSL_A1_y abs PSL_LO add PSL_sign 0 lt {PSL_LH} {PSL_AH1} ifelse add PSL_sign mul def
/PSL_x 0 def
PSL_x PSL_A0_y M
currentpoint /PSL_save_y exch def /PSL_save_x exch def
0 0 M 42 F19 (3350) E /PSL_dim_w exch def FP pathbbox N /PSL_dim_h exch def pop /PSL_dim_d exch def pop
PSL_save_x PSL_save_y m
V -90 R PSL_dim_w neg PSL_dim_h 2 div neg G 42 F19 (3350) Z U
/PSL_x 189 def
PSL_x PSL_A0_y M
currentpoint /PSL_save_y exch def /PSL_save_x exch def
0 0 M 42 F19 (3400) E /PSL_dim_w exch def FP pathbbox N /PSL_dim_h exch def pop /PSL_dim_d exch def pop
PSL_save_x PSL_save_y m
V -90 R PSL_dim_w neg PSL_dim_h 2 div neg G 42 F19 (3400) Z U
/PSL_x 378 def
PSL_x PSL_A0_y M
currentpoint /PSL_save_y exch def /PSL_save_x exch def
0 0 M 42 F19 (3450) E /PSL_dim_w exch def FP pathbbox N /PSL_dim_h exch def pop /PSL_dim_d exch def pop
PSL_save_x PSL_save_y m
V -90 R PSL_dim_w neg PSL_dim_h 2 div neg G 42 F19 (3450) Z U
/PSL_x 567 def
PSL_x PSL_A0_y M
currentpoint /PSL_save_y exch def /PSL_save_x exch def
0 0 M 42 F19 (3500) E /PSL_dim_w exch def FP pathbbox N /PSL_dim_h exch def pop /PSL_dim_d exch def pop
PSL_save_x PSL_save_y m
V -90 R PSL_dim_w neg PSL_dim_h 2 div neg G 42 F19 (3500) Z U
/PSL_x 756 def
PSL_x PSL_A0_y M
currentpoint /PSL_save_y exch def /PSL_save_x exch def
0 0 M 42 F19 (3550) E /PSL_dim_w exch def FP pathbbox N /PSL_dim_h exch def pop /PSL_dim_d exch def pop
PSL_save_x PSL_save_y m
V -90 R PSL_dim_w neg PSL_dim_h 2 div neg G 42 F19 (3550) Z U
/PSL_x 945 def
PSL_x PSL_A0_y M
currentpoint /PSL_save_y exch def /PSL_save_x exch def
0 0 M 42 F19 (3600) E /PSL_dim_w exch def FP pathbbox N /PSL_dim_h exch def pop /PSL_dim_d exch def pop
PSL_save_x PSL_save_y m
V -90 R PSL_dim_w neg PSL_dim_h 2 div neg G 42 F19 (3600) Z U
/PSL_x 472 def
0 0 M 42 F19 (T) E /PSL_dim_w exch def FP pathbbox N /PSL_dim_h exch def pop /PSL_dim_d exch def pop
PSL_x PSL_L_y M
currentpoint /PSL_save_y exch def /PSL_save_x exch def
0 0 M 42 F19 (T) E /PSL_dim_w exch def FP pathbbox N /PSL_dim_h exch def pop /PSL_dim_d exch def pop
PSL_save_x PSL_save_y m
PSL_dim_w 2 div neg 0 G 42 F19 (T) Z
-90 R
1417.32 0 T 90 R
/PSL_sign -1 def
/PSL_do_annot 0 def
/PSL_do_label 1 def
/PSL_do_A1 0 def
/PSL_TL1 24 def
/PSL_AO0 24 def
/PSL_AO1 24 def
/PSL_LO 35 def
/PSL_AF0 42 def
/PSL_AF1 67 def
/PSL_LF 42 def
/PSL_AH0 0 def
/PSL_AH1 0 def
0 0 M 42 F19 (M) E /PSL_dim_w exch def FP pathbbox N /PSL_dim_h exch def pop /PSL_dim_d exch def pop
PSL_dim_h PSL_dim_d sub /PSL_LH exch def
S 4 W
0 0 M 945 0 D S
S 2 W
0 0 M 0 -24 D S
189 0 M 0 -24 D S
378 0 M 0 -24 D S
567 0 M 0 -24 D S
756 0 M 0 -24 D S
945 0 M 0 -24 D S
0 0 M 0 -12 D S
189 0 M 0 -12 D S
378 0 M 0 -12 D S
567 0 M 0 -12 D S
756 0 M 0 -12 D S
945 0 M 0 -12 D S
/PSL_A0_y PSL_AO0 PSL_TL1 PSL_AO0 mul 0 gt {PSL_TL1 add} if PSL_AO0 0 gt {PSL_sign 0 lt {PSL_AH0} {0} ifelse add} if PSL_sign mul def
/PSL_A1_y PSL_A0_y abs PSL_AO1 add PSL_sign 0 lt {PSL_AH1} {PSL_AH0} ifelse add PSL_sign mul def
/PSL_L_y PSL_A1_y abs PSL_LO add PSL_sign 0 lt {PSL_LH} {PSL_AH1} ifelse add PSL_sign mul def
-90 R -1417.32 0 T
0 944.882 T
/PSL_sign 1 def
/PSL_do_annot 1 def
/PSL_do_label 1 def
/PSL_do_A1 0 def
/PSL_TL1 24 def
/PSL_AO0 24 def
/PSL_AO1 24 def
/PSL_LO 35 def
/PSL_AF0 42 def
/PSL_AF1 67 def
/PSL_LF 42 def
/PSL_AH0 0 def
/PSL_AH1 0 def
0 0 M 42 F19 (M) E /PSL_dim_w exch def FP pathbbox N /PSL_dim_h exch def pop /PSL_dim_d exch def pop
PSL_dim_h PSL_dim_d sub /PSL_LH exch def
S 4 W
0 0 M 1417 0 D S
S 2 W
118 0 M 0 24 D S
709 0 M 0 24 D S
1299 0 M 0 24 D S
0 0 M 42 F19 (0.45) E /PSL_dim_w exch def FP pathbbox N /PSL_dim_h exch def pop /PSL_dim_d exch def pop
PSL_dim_h PSL_AH0 gt {/PSL_AH0 PSL_dim_h def} if
0 0 M 42 F19 (0.50) E /PSL_dim_w exch def FP pathbbox N /PSL_dim_h exch def pop /PSL_dim_d exch def pop
PSL_dim_h PSL_AH0 gt {/PSL_AH0 PSL_dim_h def} if
0 0 M 42 F19 (0.55) E /PSL_dim_w exch def FP pathbbox N /PSL_dim_h exch def pop /PSL_dim_d exch def pop
PSL_dim_h PSL_AH0 gt {/PSL_AH0 PSL_dim_h def} if
118 0 M 0 12 D S
709 0 M 0 12 D S
1299 0 M 0 12 D S
/PSL_A0_y PSL_AO0 PSL_TL1 PSL_AO0 mul 0 gt {PSL_TL1 add} if PSL_AO0 0 gt {PSL_sign 0 lt {PSL_AH0} {0} ifelse add} if PSL_sign mul def
/PSL_A1_y PSL_A0_y abs PSL_AO1 add PSL_sign 0 lt {PSL_AH1} {PSL_AH0} ifelse add PSL_sign mul def
/PSL_L_y PSL_A1_y abs PSL_LO add PSL_sign 0 lt {PSL_LH} {PSL_AH1} ifelse add PSL_sign mul def
/PSL_x 118 def
PSL_x PSL_A0_y M
currentpoint /PSL_save_y exch def /PSL_save_x exch def
0 0 M 42 F19 (0.45) E /PSL_dim_w exch def FP pathbbox N /PSL_dim_h exch def pop /PSL_dim_d exch def pop
PSL_save_x PSL_save_y m
PSL_dim_w 2 div neg 0 G 42 F19 (0.45) Z
/PSL_x 709 def
PSL_x PSL_A0_y M
currentpoint /PSL_save_y exch def /PSL_save_x exch def
0 0 M 42 F19 (0.50) E /PSL_dim_w exch def FP pathbbox N /PSL_dim_h exch def pop /PSL_dim_d exch def pop
PSL_save_x PSL_save_y m
PSL_dim_w 2 div neg 0 G 42 F19 (0.50) Z
/PSL_x 1299 def
PSL_x PSL_A0_y M
currentpoint /PSL_save_y exch def /PSL_save_x exch def
0 0 M 42 F19 (0.55) E /PSL_dim_w exch def FP pathbbox N /PSL_dim_h exch def pop /PSL_dim_d exch def pop
PSL_save_x PSL_save_y m
PSL_dim_w 2 div neg 0 G 42 F19 (0.55) Z
/PSL_x 709 def
0 0 M 42 F19 (y) E /PSL_dim_w exch def FP pathbbox N /PSL_dim_h exch def pop /PSL_dim_d exch def pop
PSL_x PSL_L_y M
currentpoint /PSL_save_y exch def /PSL_save_x exch def
0 0 M 42 F19 (y) E /PSL_dim_w exch def FP pathbbox N /PSL_dim_h exch def pop /PSL_dim_d exch def pop
PSL_save_x PSL_save_y m
PSL_dim_w 2 div neg 0 G 42 F19 (y) Z
0 -944.882 T
S 0 A
PSL_font_encode 0 get 0 eq {ISOLatin1+_Encoding /Helvetica /Helvetica PSL_reencode PSL_font_encode 0 1 put} if
PSL_font_encode 19 get 0 eq {ISOLatin1+_Encoding /Bookman-Light /Bookman-Light PSL_reencode PSL_font_encode 19 1 put} if
0 setlinecap
0 setlinejoin
3.32551 setmiterlimit

%% PostScript produced by:
%%GMT:  psxy -JX12c/8c -R0.44/0.56/3350/3600 -K -O -W1 -Sc0.1 -Gred
%%PROJ: xy 0.44000000 0.56000000 3350.00000000 3600.00000000 0.440 0.560 3350.000 3600.000 +xy +a=6378137.000 +b=6356752.314245
S V
0 0 M
1417 0 D
0 945 D
-1417 0 D
eoclip N
S 1 W
S 0 A
{1 0 0 C} FS
O1
6 5 87 SC
6 11 87 SC
6 17 87 SC
6 22 87 SC
6 28 87 SC
6 34 87 SC
6 40 87 SC
6 46 87 SC
6 52 87 SC
6 58 87 SC
6 64 87 SC
6 70 87 SC
6 76 87 SC
6 81 87 SC
6 87 87 SC
6 93 87 SC
6 99 88 SC
6 105 88 SC
6 111 88 SC
6 117 88 SC
6 123 88 SC
6 129 88 SC
6 135 88 SC
6 141 88 SC
6 146 88 SC
6 152 88 SC
6 158 88 SC
6 164 88 SC
6 170 88 SC
6 176 88 SC
6 182 88 SC
6 188 89 SC
6 194 89 SC
6 200 89 SC
6 206 89 SC
6 211 89 SC
6 217 89 SC
6 223 89 SC
6 229 90 SC
6 235 90 SC
6 241 90 SC
6 247 90 SC
6 253 90 SC
6 259 91 SC
6 265 91 SC
6 270 91 SC
6 276 91 SC
6 282 92 SC
6 288 92 SC
6 294 93 SC
6 300 93 SC
6 306 93 SC
6 312 94 SC
6 318 94 SC
6 324 95 SC
6 330 95 SC
6 335 96 SC
6 341 97 SC
6 347 97 SC
6 353 98 SC
6 359 99 SC
6 365 100 SC
6 371 101 SC
6 377 102 SC
6 383 103 SC
6 389 104 SC
6 394 105 SC
6 400 106 SC
6 406 108 SC
6 412 109 SC
6 418 111 SC
6 424 112 SC
6 430 114 SC
6 436 116 SC
6 442 118 SC
6 448 120 SC
6 454 123 SC
6 459 125 SC
6 465 128 SC
6 471 131 SC
6 477 134 SC
6 483 137 SC
6 489 141 SC
6 495 145 SC
6 501 149 SC
6 507 153 SC
6 513 158 SC
6 519 163 SC
6 524 169 SC
6 530 175 SC
6 536 181 SC
6 542 187 SC
6 548 195 SC
6 554 202 SC
6 560 210 SC
6 566 219 SC
6 572 229 SC
6 578 239 SC
6 583 250 SC
6 589 261 SC
6 595 274 SC
6 601 287 SC
6 607 301 SC
6 613 316 SC
6 619 333 SC
6 625 350 SC
6 631 369 SC
6 637 389 SC
6 643 410 SC
6 648 433 SC
6 654 457 SC
6 660 483 SC
6 666 510 SC
6 672 538 SC
6 678 568 SC
6 684 598 SC
6 690 628 SC
6 696 656 SC
6 702 682 SC
6 707 705 SC
6 713 723 SC
6 719 736 SC
6 725 746 SC
6 731 753 SC
6 737 757 SC
6 743 760 SC
6 749 761 SC
6 755 762 SC
6 761 763 SC
6 767 763 SC
6 772 764 SC
6 778 764 SC
6 784 764 SC
6 790 764 SC
6 796 764 SC
6 802 764 SC
6 808 764 SC
6 814 764 SC
6 820 764 SC
6 826 764 SC
6 831 764 SC
6 837 764 SC
6 843 764 SC
6 849 764 SC
6 855 764 SC
6 861 764 SC
6 867 764 SC
6 873 764 SC
6 879 764 SC
6 885 764 SC
6 891 764 SC
6 896 764 SC
6 902 764 SC
6 908 764 SC
6 914 764 SC
6 920 764 SC
6 926 764 SC
6 932 764 SC
6 938 764 SC
6 944 764 SC
6 950 764 SC
6 956 764 SC
6 961 764 SC
6 967 764 SC
6 973 764 SC
6 979 764 SC
6 985 764 SC
6 991 764 SC
6 997 764 SC
6 1003 764 SC
6 1009 764 SC
6 1015 764 SC
6 1020 764 SC
6 1026 764 SC
6 1032 764 SC
6 1038 764 SC
6 1044 764 SC
6 1050 764 SC
6 1056 764 SC
6 1062 764 SC
6 1068 764 SC
6 1074 764 SC
6 1080 764 SC
6 1085 764 SC
6 1091 764 SC
6 1097 764 SC
6 1103 764 SC
6 1109 764 SC
6 1115 764 SC
6 1121 764 SC
6 1127 764 SC
6 1133 764 SC
6 1139 764 SC
6 1144 764 SC
6 1150 764 SC
6 1156 764 SC
6 1162 764 SC
6 1168 764 SC
6 1174 764 SC
6 1180 764 SC
6 1186 764 SC
6 1192 764 SC
6 1198 764 SC
6 1204 764 SC
6 1209 764 SC
6 1215 764 SC
6 1221 764 SC
6 1227 764 SC
6 1233 764 SC
6 1239 764 SC
6 1245 764 SC
6 1251 764 SC
6 1257 764 SC
6 1263 764 SC
6 1269 764 SC
6 1274 764 SC
6 1280 764 SC
6 1286 764 SC
6 1292 764 SC
6 1298 764 SC
6 1304 764 SC
6 1310 764 SC
6 1316 764 SC
6 1322 764 SC
6 1328 764 SC
6 1333 764 SC
6 1339 764 SC
6 1345 764 SC
6 1351 764 SC
6 1357 764 SC
6 1363 764 SC
6 1369 764 SC
6 1375 764 SC
6 1381 764 SC
6 1387 764 SC
6 1393 764 SC
6 1398 764 SC
6 1404 764 SC
6 1410 764 SC
6 1416 764 SC
S U
S [] 0 B
S 0 A
PSL_font_encode 0 get 0 eq {ISOLatin1+_Encoding /Helvetica /Helvetica PSL_reencode PSL_font_encode 0 1 put} if
PSL_font_encode 19 get 0 eq {ISOLatin1+_Encoding /Bookman-Light /Bookman-Light PSL_reencode PSL_font_encode 19 1 put} if
0 setlinecap
0 setlinejoin
3.32551 setmiterlimit

%% PostScript produced by:
%%GMT:  psxy -JX12c/8c -R0.44/0.56/3350/3600 -K -O -W1,red
%%PROJ: xy 0.44000000 0.56000000 3350.00000000 3600.00000000 0.440 0.560 3350.000 3600.000 +xy +a=6378137.000 +b=6356752.314245
S 1 W
S 1 0 0 C
0 87 M
608 0 D
1 1 D
11 0 D
1 1 D
5 0 D
1 1 D
3 0 D
1 1 D
1 0 D
1 1 D
1 0 D
1 1 D
2 0 D
2 2 D
1 0 D
1 1 D
2 1 D
2 2 D
1 2 D
1 1 D
1 2 D
2 1 D
1 2 D
1 3 D
2 4 D
2 3 D
1 3 D
4 16 D
2 5 D
3 18 D
1 7 D
2 8 D
2 18 D
1 10 D
1 11 D
1 12 D
2 13 D
1 14 D
1 15 D
1 16 D
1 17 D
1 18 D
2 20 D
1 20 D
1 22 D
1 23 D
1 24 D
2 25 D
1 25 D
1 27 D
1 26 D
2 54 D
2 26 D
1 26 D
1 25 D
1 23 D
1 22 D
2 20 D
1 17 D
1 15 D
1 12 D
1 8 D
1 5 D
2 2 D
1 -2 D
1 -5 D
1 -8 D
1 -12 D
2 -15 D
1 -17 D
1 -20 D
1 -22 D
1 -23 D
1 -25 D
2 -26 D
1 -26 D
2 -54 D
1 -26 D
2 -27 D
2 -50 D
1 -24 D
1 -23 D
1 -22 D
2 -20 D
1 -20 D
1 -18 D
1 -17 D
1 -16 D
2 -15 D
1 -14 D
1 -13 D
1 -12 D
1 -11 D
1 -10 D
2 -9 D
1 -9 D
1 -8 D
1 -7 D
1 -6 D
2 -6 D
1 -6 D
1 -5 D
3 -12 D
2 -4 D
2 -6 D
2 -4 D
2 -3 D
1 -2 D
1 -1 D
1 -2 D
1 -1 D
1 -2 D
2 -1 D
3 -3 D
1 0 D
2 -1 D
1 -1 D
1 0 D
1 -1 D
1 0 D
1 -1 D
2 0 D
1 -1 D
2 0 D
1 -1 D
5 0 D
1 -1 D
11 0 D
1 -1 D
608 0 D
S
S 0 A
PSL_font_encode 0 get 0 eq {ISOLatin1+_Encoding /Helvetica /Helvetica PSL_reencode PSL_font_encode 0 1 put} if
PSL_font_encode 19 get 0 eq {ISOLatin1+_Encoding /Bookman-Light /Bookman-Light PSL_reencode PSL_font_encode 19 1 put} if
0 setlinecap
0 setlinejoin
3.32551 setmiterlimit

%% PostScript produced by:
%%GMT:  psxy -JX12c/8c -R0.44/0.56/3350/3600 -K -O -W1 -Sc0.1 -Ggreen
%%PROJ: xy 0.44000000 0.56000000 3350.00000000 3600.00000000 0.440 0.560 3350.000 3600.000 +xy +a=6378137.000 +b=6356752.314245
S V
0 0 M
1417 0 D
0 945 D
-1417 0 D
eoclip N
S 1 W
S 0 A
{0 1 0 C} FS
O1
6 5 92 SC
6 11 93 SC
6 17 93 SC
6 22 93 SC
6 28 94 SC
6 34 94 SC
6 40 94 SC
6 46 95 SC
6 52 95 SC
6 58 95 SC
6 64 96 SC
6 70 96 SC
6 76 97 SC
6 81 97 SC
6 87 98 SC
6 93 98 SC
6 99 99 SC
6 105 99 SC
6 111 100 SC
6 117 100 SC
6 123 101 SC
6 129 102 SC
6 135 102 SC
6 141 103 SC
6 146 104 SC
6 152 105 SC
6 158 105 SC
6 164 106 SC
6 170 107 SC
6 176 108 SC
6 182 109 SC
6 188 110 SC
6 194 111 SC
6 200 112 SC
6 206 113 SC
6 211 114 SC
6 217 116 SC
6 223 117 SC
6 229 118 SC
6 235 120 SC
6 241 121 SC
6 247 123 SC
6 253 124 SC
6 259 126 SC
6 265 128 SC
6 270 129 SC
6 276 131 SC
6 282 133 SC
6 288 135 SC
6 294 137 SC
6 300 139 SC
6 306 141 SC
6 312 144 SC
6 318 146 SC
6 324 149 SC
6 330 151 SC
6 335 154 SC
6 341 157 SC
6 347 159 SC
6 353 162 SC
6 359 165 SC
6 365 169 SC
6 371 172 SC
6 377 175 SC
6 383 179 SC
6 389 182 SC
6 394 186 SC
6 400 190 SC
6 406 194 SC
6 412 198 SC
6 418 202 SC
6 424 206 SC
6 430 211 SC
6 436 215 SC
6 442 220 SC
6 448 225 SC
6 454 230 SC
6 459 235 SC
6 465 240 SC
6 471 245 SC
6 477 251 SC
6 483 256 SC
6 489 262 SC
6 495 268 SC
6 501 274 SC
6 507 280 SC
6 513 286 SC
6 519 293 SC
6 524 299 SC
6 530 306 SC
6 536 312 SC
6 542 319 SC
6 548 326 SC
6 554 333 SC
6 560 340 SC
6 566 347 SC
6 572 354 SC
6 578 362 SC
6 583 369 SC
6 589 377 SC
6 595 384 SC
6 601 392 SC
6 607 399 SC
6 613 407 SC
6 619 415 SC
6 625 422 SC
6 631 430 SC
6 637 438 SC
6 643 445 SC
6 648 453 SC
6 654 461 SC
6 660 469 SC
6 666 476 SC
6 672 484 SC
6 678 491 SC
6 684 499 SC
6 690 506 SC
6 696 514 SC
6 702 521 SC
6 707 528 SC
6 713 535 SC
6 719 542 SC
6 725 549 SC
6 731 556 SC
6 737 563 SC
6 743 569 SC
6 749 576 SC
6 755 582 SC
6 761 589 SC
6 767 595 SC
6 772 601 SC
6 778 606 SC
6 784 612 SC
6 790 618 SC
6 796 623 SC
6 802 628 SC
6 808 634 SC
6 814 639 SC
6 820 643 SC
6 826 648 SC
6 831 653 SC
6 837 657 SC
6 843 661 SC
6 849 666 SC
6 855 670 SC
6 861 673 SC
6 867 677 SC
6 873 681 SC
6 879 684 SC
6 885 688 SC
6 891 691 SC
6 896 694 SC
6 902 697 SC
6 908 700 SC
6 914 703 SC
6 920 705 SC
6 926 708 SC
6 932 711 SC
6 938 713 SC
6 944 715 SC
6 950 717 SC
6 956 719 SC
6 961 721 SC
6 967 723 SC
6 973 725 SC
6 979 727 SC
6 985 729 SC
6 991 730 SC
6 997 732 SC
6 1003 733 SC
6 1009 735 SC
6 1015 736 SC
6 1020 737 SC
6 1026 739 SC
6 1032 740 SC
6 1038 741 SC
6 1044 742 SC
6 1050 743 SC
6 1056 744 SC
6 1062 745 SC
6 1068 746 SC
6 1074 747 SC
6 1080 748 SC
6 1085 748 SC
6 1091 749 SC
6 1097 750 SC
6 1103 751 SC
6 1109 751 SC
6 1115 752 SC
6 1121 752 SC
6 1127 753 SC
6 1133 753 SC
6 1139 754 SC
6 1144 754 SC
6 1150 755 SC
6 1156 755 SC
6 1162 756 SC
6 1168 756 SC
6 1174 757 SC
6 1180 757 SC
6 1186 757 SC
6 1192 758 SC
6 1198 758 SC
6 1204 758 SC
6 1209 759 SC
6 1215 759 SC
6 1221 759 SC
6 1227 759 SC
6 1233 760 SC
6 1239 760 SC
6 1245 760 SC
6 1251 760 SC
6 1257 760 SC
6 1263 761 SC
6 1269 761 SC
6 1274 761 SC
6 1280 761 SC
6 1286 761 SC
6 1292 761 SC
6 1298 761 SC
6 1304 762 SC
6 1310 762 SC
6 1316 762 SC
6 1322 762 SC
6 1328 762 SC
6 1333 762 SC
6 1339 762 SC
6 1345 762 SC
6 1351 762 SC
6 1357 762 SC
6 1363 763 SC
6 1369 763 SC
6 1375 763 SC
6 1381 763 SC
6 1387 763 SC
6 1393 763 SC
6 1398 763 SC
6 1404 763 SC
6 1410 763 SC
6 1416 763 SC
S U
S [] 0 B
S 0 A
PSL_font_encode 0 get 0 eq {ISOLatin1+_Encoding /Helvetica /Helvetica PSL_reencode PSL_font_encode 0 1 put} if
PSL_font_encode 19 get 0 eq {ISOLatin1+_Encoding /Bookman-Light /Bookman-Light PSL_reencode PSL_font_encode 19 1 put} if
0 setlinecap
0 setlinejoin
3.32551 setmiterlimit

%% PostScript produced by:
%%GMT:  psxy -JX12c/8c -R0.44/0.56/3350/3600 -K -O -W1,green
%%PROJ: xy 0.44000000 0.56000000 3350.00000000 3600.00000000 0.440 0.560 3350.000 3600.000 +xy +a=6378137.000 +b=6356752.314245
S 1 W
S 0 1 0 C
0 94 M
11 0 D
1 1 D
13 0 D
1 1 D
13 0 D
1 1 D
11 0 D
1 1 D
9 0 D
2 1 D
8 0 D
1 1 D
8 0 D
1 1 D
8 0 D
1 1 D
7 0 D
1 1 D
6 0 D
1 1 D
6 0 D
1 1 D
6 0 D
1 1 D
5 0 D
1 1 D
5 0 D
1 1 D
5 0 D
1 1 D
4 0 D
1 1 D
4 0 D
2 1 D
3 0 D
1 1 D
4 0 D
1 1 D
4 0 D
1 1 D
3 0 D
2 1 D
2 0 D
1 1 D
4 0 D
1 1 D
2 0 D
1 1 D
4 0 D
1 1 D
2 0 D
2 1 D
2 0 D
1 1 D
3 0 D
1 1 D
2 0 D
1 1 D
3 0 D
1 1 D
1 0 D
1 1 D
3 0 D
1 1 D
2 0 D
1 1 D
1 0 D
2 1 D
2 0 D
1 1 D
1 0 D
2 1 D
2 0 D
1 1 D
1 0 D
1 1 D
2 0 D
1 1 D
2 0 D
1 1 D
1 0 D
2 1 D
1 0 D
1 1 D
1 0 D
1 1 D
2 0 D
1 1 D
1 0 D
1 1 D
1 0 D
1 1 D
2 0 D
1 1 D
1 0 D
1 1 D
1 0 D
2 1 D
1 0 D
1 1 D
1 0 D
2 2 D
2 0 D
1 1 D
1 0 D
1 1 D
1 0 D
2 1 D
1 1 D
1 0 D
1 1 D
1 0 D
1 1 D
2 1 D
1 0 D
2 2 D
1 0 D
2 1 D
1 1 D
1 0 D
2 2 D
1 0 D
2 1 D
1 1 D
1 0 D
2 2 D
2 0 D
3 3 D
1 0 D
1 1 D
2 1 D
1 1 D
1 0 D
2 2 D
2 1 D
1 1 D
1 0 D
3 3 D
2 1 D
1 1 D
1 0 D
2 2 D
2 1 D
4 4 D
1 0 D
2 1 D
4 4 D
2 1 D
5 5 D
2 1 D
4 4 D
2 1 D
4 4 D
1 2 D
2 1 D
4 4 D
2 1 D
1 1 D
1 2 D
3 3 D
2 1 D
1 2 D
3 3 D
2 1 D
1 2 D
2 2 D
1 2 D
1 1 D
2 1 D
1 2 D
2 2 D
1 2 D
1 1 D
2 1 D
1 2 D
2 2 D
1 2 D
2 1 D
1 2 D
1 1 D
1 2 D
1 1 D
1 2 D
2 1 D
1 2 D
1 1 D
1 2 D
4 4 D
1 2 D
1 1 D
2 4 D
2 1 D
1 2 D
1 1 D
2 4 D
2 1 D
2 4 D
1 1 D
2 4 D
3 3 D
3 6 D
2 1 D
5 10 D
2 1 D
4 8 D
2 2 D
5 10 D
2 2 D
4 8 D
2 2 D
5 10 D
2 2 D
1 3 D
3 6 D
2 2 D
1 2 D
1 3 D
3 6 D
2 2 D
1 3 D
2 4 D
1 3 D
2 2 D
2 4 D
1 3 D
2 4 D
2 3 D
2 4 D
1 3 D
1 2 D
2 3 D
1 2 D
1 3 D
2 4 D
1 3 D
2 2 D
1 3 D
1 2 D
1 3 D
1 2 D
2 3 D
1 2 D
1 3 D
1 2 D
1 3 D
1 2 D
2 3 D
1 2 D
2 6 D
1 2 D
2 3 D
1 2 D
2 6 D
1 2 D
1 3 D
2 2 D
2 6 D
1 2 D
2 6 D
2 2 D
1 3 D
1 2 D
2 6 D
2 2 D
3 9 D
1 2 D
1 3 D
2 3 D
1 2 D
2 6 D
1 2 D
2 3 D
1 3 D
1 2 D
2 6 D
1 2 D
2 3 D
1 3 D
1 2 D
2 6 D
2 2 D
3 9 D
1 2 D
1 3 D
2 2 D
2 6 D
1 2 D
1 3 D
2 3 D
1 2 D
2 6 D
1 2 D
1 3 D
2 2 D
1 3 D
1 2 D
2 6 D
2 2 D
1 3 D
1 2 D
1 3 D
1 2 D
1 3 D
2 2 D
1 3 D
1 2 D
1 3 D
1 2 D
2 2 D
1 3 D
1 2 D
1 3 D
2 4 D
2 3 D
3 6 D
1 3 D
2 2 D
2 4 D
1 3 D
2 4 D
2 2 D
4 8 D
2 2 D
5 10 D
2 2 D
3 6 D
3 3 D
2 4 D
1 1 D
2 4 D
2 1 D
2 4 D
1 1 D
1 2 D
2 1 D
1 2 D
2 2 D
1 2 D
1 1 D
2 1 D
1 2 D
3 3 D
2 1 D
1 2 D
4 4 D
2 1 D
2 2 D
1 0 D
2 2 D
2 1 D
1 1 D
1 0 D
2 2 D
2 0 D
1 1 D
1 0 D
1 1 D
1 0 D
1 1 D
3 0 D
1 1 D
2 0 D
2 1 D
14 0 D
1 -1 D
2 0 D
1 -1 D
3 0 D
1 -1 D
1 0 D
1 -1 D
2 0 D
1 -1 D
1 0 D
2 -2 D
1 0 D
2 -1 D
3 -3 D
1 0 D
2 -1 D
5 -5 D
2 -1 D
1 -2 D
3 -3 D
2 -1 D
1 -2 D
2 -2 D
1 -2 D
1 -1 D
2 -1 D
1 -2 D
1 -1 D
1 -2 D
3 -3 D
1 -2 D
1 -1 D
2 -4 D
3 -3 D
2 -4 D
1 -1 D
1 -2 D
2 -2 D
5 -10 D
2 -2 D
4 -8 D
2 -2 D
4 -8 D
1 -3 D
2 -2 D
2 -4 D
1 -3 D
1 -2 D
2 -2 D
1 -2 D
1 -3 D
2 -4 D
1 -3 D
2 -2 D
1 -3 D
2 -4 D
1 -3 D
2 -2 D
1 -3 D
1 -2 D
1 -3 D
1 -2 D
1 -3 D
2 -2 D
1 -3 D
1 -2 D
2 -6 D
1 -2 D
2 -3 D
1 -2 D
1 -3 D
1 -2 D
1 -3 D
2 -3 D
1 -2 D
2 -6 D
1 -2 D
1 -3 D
2 -3 D
1 -2 D
1 -3 D
1 -2 D
1 -3 D
2 -3 D
1 -3 D
1 -2 D
2 -6 D
1 -2 D
2 -3 D
1 -3 D
1 -2 D
2 -6 D
2 -2 D
2 -6 D
1 -2 D
2 -6 D
2 -2 D
2 -6 D
1 -2 D
1 -3 D
2 -3 D
1 -3 D
1 -2 D
2 -6 D
1 -2 D
2 -3 D
1 -2 D
2 -6 D
1 -2 D
2 -3 D
1 -3 D
1 -2 D
1 -3 D
1 -2 D
1 -3 D
2 -3 D
1 -2 D
1 -3 D
1 -2 D
1 -3 D
2 -3 D
1 -2 D
1 -3 D
1 -2 D
1 -3 D
1 -2 D
2 -3 D
1 -2 D
1 -3 D
1 -2 D
1 -3 D
2 -2 D
1 -3 D
1 -2 D
1 -3 D
2 -4 D
2 -3 D
1 -2 D
1 -3 D
1 -2 D
1 -3 D
2 -2 D
1 -2 D
1 -3 D
2 -4 D
1 -3 D
2 -2 D
2 -4 D
1 -3 D
1 -2 D
2 -2 D
1 -3 D
4 -8 D
2 -3 D
4 -8 D
2 -2 D
1 -3 D
4 -8 D
2 -2 D
4 -8 D
2 -2 D
5 -10 D
2 -2 D
5 -10 D
3 -3 D
3 -6 D
2 -2 D
1 -2 D
1 -1 D
3 -6 D
2 -1 D
3 -6 D
3 -3 D
1 -2 D
1 -1 D
2 -4 D
4 -4 D
2 -4 D
4 -4 D
1 -2 D
1 -1 D
1 -2 D
4 -4 D
1 -2 D
1 -1 D
1 -2 D
2 -1 D
1 -2 D
1 -1 D
1 -2 D
6 -6 D
1 -2 D
1 -1 D
2 -1 D
1 -2 D
2 -2 D
1 -2 D
1 -1 D
2 -1 D
1 -2 D
3 -3 D
2 -1 D
1 -2 D
10 -10 D
2 -1 D
2 -2 D
1 -2 D
2 -2 D
2 -1 D
4 -4 D
2 -1 D
5 -5 D
2 -1 D
4 -4 D
2 -1 D
2 -2 D
1 0 D
2 -2 D
2 -1 D
4 -4 D
2 0 D
5 -5 D
2 0 D
4 -4 D
2 0 D
3 -3 D
1 0 D
1 -1 D
2 -1 D
1 -1 D
1 0 D
2 -2 D
1 0 D
2 -1 D
1 -1 D
1 0 D
2 -2 D
2 0 D
2 -2 D
1 0 D
2 -2 D
2 0 D
2 -2 D
1 0 D
1 -1 D
2 0 D
2 -2 D
1 0 D
1 -1 D
1 0 D
2 -1 D
1 0 D
2 -2 D
1 0 D
2 -1 D
1 0 D
1 -1 D
1 0 D
1 -1 D
1 0 D
2 -1 D
1 0 D
1 -1 D
1 0 D
1 -1 D
2 0 D
1 -1 D
1 0 D
1 -1 D
1 0 D
1 -1 D
2 0 D
1 -1 D
1 0 D
1 -1 D
3 0 D
1 -1 D
1 0 D
1 -1 D
1 0 D
1 -1 D
3 0 D
1 -1 D
1 0 D
1 -1 D
3 0 D
1 -1 D
1 0 D
1 -1 D
3 0 D
1 -1 D
2 0 D
1 -1 D
2 0 D
1 -1 D
2 0 D
1 -1 D
3 0 D
1 -1 D
2 0 D
1 -1 D
3 0 D
1 -1 D
2 0 D
1 -1 D
4 0 D
1 -1 D
3 0 D
1 -1 D
3 0 D
1 -1 D
3 0 D
1 -1 D
4 0 D
1 -1 D
3 0 D
1 -1 D
4 0 D
1 -1 D
4 0 D
1 -1 D
5 0 D
1 -1 D
3 0 D
1 -1 D
5 0 D
1 -1 D
5 0 D
1 -1 D
5 0 D
1 -1 D
6 0 D
1 -1 D
6 0 D
1 -1 D
6 0 D
1 -1 D
8 0 D
1 -1 D
7 0 D
1 -1 D
8 0 D
1 -1 D
9 0 D
1 -1 D
9 0 D
2 -1 D
10 0 D
1 -1 D
13 0 D
2 -1 D
13 0 D
1 -1 D
10 0 D
S
S 0 A
PSL_font_encode 0 get 0 eq {ISOLatin1+_Encoding /Helvetica /Helvetica PSL_reencode PSL_font_encode 0 1 put} if
PSL_font_encode 19 get 0 eq {ISOLatin1+_Encoding /Bookman-Light /Bookman-Light PSL_reencode PSL_font_encode 19 1 put} if
0 setlinecap
0 setlinejoin
3.32551 setmiterlimit

%% PostScript produced by:
%%GMT:  psxy -JX12c/8c -R0.44/0.56/3350/3600 -K -O -W1,-
%%PROJ: xy 0.44000000 0.56000000 3350.00000000 3600.00000000 0.440 0.560 3350.000 3600.000 +xy +a=6378137.000 +b=6356752.314245
S 1 W
S [8 4] 0 B
S 0 A
709 0 M
0 945 D
S
S [] 0 B
S 0 A
PSL_font_encode 0 get 0 eq {ISOLatin1+_Encoding /Helvetica /Helvetica PSL_reencode PSL_font_encode 0 1 put} if
PSL_font_encode 19 get 0 eq {ISOLatin1+_Encoding /Bookman-Light /Bookman-Light PSL_reencode PSL_font_encode 19 1 put} if
0 setlinecap
0 setlinejoin
3.32551 setmiterlimit

%% PostScript produced by:
%%GMT:  psxy -JX12c/8c -R0.44/0.56/3350/3600 -K -O -W1,-
%%PROJ: xy 0.44000000 0.56000000 3350.00000000 3600.00000000 0.440 0.560 3350.000 3600.000 +xy +a=6378137.000 +b=6356752.314245
S 1 W
S [8 4] 0 B
S 0 A
709 764 M
708 0 D
S
S [] 0 B
S 0 A
PSL_font_encode 0 get 0 eq {ISOLatin1+_Encoding /Helvetica /Helvetica PSL_reencode PSL_font_encode 0 1 put} if
PSL_font_encode 19 get 0 eq {ISOLatin1+_Encoding /Bookman-Light /Bookman-Light PSL_reencode PSL_font_encode 19 1 put} if
0 setlinecap
0 setlinejoin
3.32551 setmiterlimit

%% PostScript produced by:
%%GMT:  pstext -JX12c/8c -R0.44/0.56/3350/3600 -K -O
%%PROJ: xy 0.44000000 0.56000000 3350.00000000 3600.00000000 0.440 0.560 3350.000 3600.000 +xy +a=6378137.000 +b=6356752.314245
S 0 W
S 0 A
S V
0 0 M
1417 0 D
0 945 D
-1417 0 D
eoclip N
S U
S [] 0 B
S 0 A
PSL_font_encode 0 get 0 eq {ISOLatin1+_Encoding /Helvetica /Helvetica PSL_reencode PSL_font_encode 0 1 put} if
PSL_font_encode 19 get 0 eq {ISOLatin1+_Encoding /Bookman-Light /Bookman-Light PSL_reencode PSL_font_encode 19 1 put} if
0 setlinecap
0 setlinejoin
3.32551 setmiterlimit

%% PostScript produced by:
%%GMT:  psxy -JX12c/8c -R0.44/0.56/3350/3600 -K -O -Sc0.1 -W1 -Gred
%%PROJ: xy 0.44000000 0.56000000 3350.00000000 3600.00000000 0.440 0.560 3350.000 3600.000 +xy +a=6378137.000 +b=6356752.314245
S V
0 0 M
1417 0 D
0 945 D
-1417 0 D
eoclip N
S 1 W
S 0 A
{1 0 0 C} FS
O1
6 35 567 SC
6 47 567 SC
6 59 567 SC
6 71 567 SC
6 83 567 SC
S U
S [] 0 B
S 0 A
PSL_font_encode 0 get 0 eq {ISOLatin1+_Encoding /Helvetica /Helvetica PSL_reencode PSL_font_encode 0 1 put} if
PSL_font_encode 19 get 0 eq {ISOLatin1+_Encoding /Bookman-Light /Bookman-Light PSL_reencode PSL_font_encode 19 1 put} if
0 setlinecap
0 setlinejoin
3.32551 setmiterlimit

%% PostScript produced by:
%%GMT:  psxy -JX12c/8c -R0.44/0.56/3350/3600 -K -O -Sc0.1 -W1 -Ggreen
%%PROJ: xy 0.44000000 0.56000000 3350.00000000 3600.00000000 0.440 0.560 3350.000 3600.000 +xy +a=6378137.000 +b=6356752.314245
S V
0 0 M
1417 0 D
0 945 D
-1417 0 D
eoclip N
S 1 W
S 0 A
{0 1 0 C} FS
O1
6 35 605 SC
6 47 605 SC
6 59 605 SC
6 71 605 SC
6 83 605 SC
S U
S [] 0 B
S 0 A
PSL_font_encode 0 get 0 eq {ISOLatin1+_Encoding /Helvetica /Helvetica PSL_reencode PSL_font_encode 0 1 put} if
PSL_font_encode 19 get 0 eq {ISOLatin1+_Encoding /Bookman-Light /Bookman-Light PSL_reencode PSL_font_encode 19 1 put} if
0 setlinecap
0 setlinejoin
3.32551 setmiterlimit

%% PostScript produced by:
%%GMT:  psxy -JX12c/8c -R0.44/0.56/3350/3600 -K -O -W1,red
%%PROJ: xy 0.44000000 0.56000000 3350.00000000 3600.00000000 0.440 0.560 3350.000 3600.000 +xy +a=6378137.000 +b=6356752.314245
S 1 W
S 1 0 0 C
35 680 M
48 0 D
S
S 0 A
PSL_font_encode 0 get 0 eq {ISOLatin1+_Encoding /Helvetica /Helvetica PSL_reencode PSL_font_encode 0 1 put} if
PSL_font_encode 19 get 0 eq {ISOLatin1+_Encoding /Bookman-Light /Bookman-Light PSL_reencode PSL_font_encode 19 1 put} if
0 setlinecap
0 setlinejoin
3.32551 setmiterlimit

%% PostScript produced by:
%%GMT:  psxy -JX12c/8c -R0.44/0.56/3350/3600 -K -O -W1,green
%%PROJ: xy 0.44000000 0.56000000 3350.00000000 3600.00000000 0.440 0.560 3350.000 3600.000 +xy +a=6378137.000 +b=6356752.314245
S 1 W
S 0 1 0 C
35 718 M
48 0 D
S
S 0 A
PSL_font_encode 0 get 0 eq {ISOLatin1+_Encoding /Helvetica /Helvetica PSL_reencode PSL_font_encode 0 1 put} if
PSL_font_encode 19 get 0 eq {ISOLatin1+_Encoding /Bookman-Light /Bookman-Light PSL_reencode PSL_font_encode 19 1 put} if
0 setlinecap
0 setlinejoin
3.32551 setmiterlimit

%% PostScript produced by:
%%GMT:  pstext -JX12c/8c -R0.44/0.56/3350/3600 -K -O
%%PROJ: xy 0.44000000 0.56000000 3350.00000000 3600.00000000 0.440 0.560 3350.000 3600.000 +xy +a=6378137.000 +b=6356752.314245
S 0 W
S 0 A
S V
0 0 M
1417 0 D
0 945 D
-1417 0 D
eoclip N
0 0 M 38 F0 (T\(z\) d=0.02) E /PSL_dim_w exch def FP pathbbox N /PSL_dim_h exch def pop /PSL_dim_d exch def pop
106 605 M 0 PSL_dim_h 2 div neg G 38 F0 (T\(z\) d=0.02) Z
0 0 M 38 F0 (T\(z\) d=0.002) E /PSL_dim_w exch def FP pathbbox N /PSL_dim_h exch def pop /PSL_dim_d exch def pop
106 567 M 0 PSL_dim_h 2 div neg G 38 F0 (T\(z\) d=0.002) Z
0 0 M 38 F0 (q vertical axis arbitrary:) E /PSL_dim_w exch def FP pathbbox N /PSL_dim_h exch def pop /PSL_dim_d exch def pop
35 756 M 0 PSL_dim_h 2 div neg G 38 F0 (q vertical axis arbitrary:) Z
0 0 M 38 F0 (q d=0.02) E /PSL_dim_w exch def FP pathbbox N /PSL_dim_h exch def pop /PSL_dim_d exch def pop
106 718 M 0 PSL_dim_h 2 div neg G 38 F0 (q d=0.02) Z
0 0 M 38 F0 (q d=0.002) E /PSL_dim_w exch def FP pathbbox N /PSL_dim_h exch def pop /PSL_dim_d exch def pop
106 680 M 0 PSL_dim_h 2 div neg G 38 F0 (q d=0.002) Z
S U
S [] 0 B
S 0 A
showpage
