# stokespetsc3.msh
# Example of the use of petsc
# Quadratic elements (Taylor-Hood)
#
constants
   integers
      mult = 1
      fact = 128
      nelmx  = fact*mult
      nelmy  = fact*mult
      shape_curv = 2
      shape_surf = 3
   reals
      aspect_ratio = 1
      length = aspect_ratio/2        # width of the square
      width = 0.5       # length of the square
      length2 = aspect_ratio        # width of the square
      width1 = 1
end

mesh2d
   points
      p1=(0,0)              # Left under point
      p2=( length,0)        # Right under point
      p3=( length, width)   # Right upper point
      p4=(0, width)         # Left upper point
      p5=(0, width1)        #
      p6=(length, width1)   #
      p7=(length2, 0)   #
      p8=(length2, width)   #
      p9=(length2, width1)   #
   curves
      c1=curves(c21,c8)
      c2=curves(c9,c11)
      c3=curves(c12,c6)
      c4=curves(c7,c24)
      c21=line shape_curv (p1,p2,nelm=nelmx)     # lower wall
      c22=line shape_curv (p2,p3,nelm=nelmy)     # outflow boundary
      c23=line shape_curv (p3,p4,nelm=nelmx)     # upper wall
      c24=line shape_curv (p4,p1,nelm=nelmy)     # inflow boundary
      c5=line shape_curv (p3,p6,nelm=nelmy)     #
      c6=line shape_curv (p6,p5,nelm=nelmx)     #
      c7=line shape_curv (p5,p4,nelm=nelmy)     #
      c8=line shape_curv (p2,p7,nelm=nelmx)     # lower wall
      c9=line shape_curv (p7,p8,nelm=nelmy)     # lower wall
      c10=line shape_curv (p8,p3,nelm=nelmx)     # lower wall
      c11=line shape_curv (p8,p9,nelm=nelmy)     # lower wall
      c12=line shape_curv (p9,p6,nelm=nelmx)     # lower wall
   surfaces
      s1=rectangle shape_surf (c21,c22,c23,c24)
      s2=rectangle shape_surf (-c23,c5,c6,c7)
      s3=rectangle shape_surf ( c8,c9,c10,-c22)
      s4=rectangle shape_surf (-c10,c11,c12,-c5)

   renumber Sloan

   plot(jmark=0)                    # make a plot of the mesh
                                  # See Users Manual Section 2.2
   parallel, method = surfaces
end
