   220.000000000000        65.0000000000000     
   219.500000000000        65.0153732406825     
   219.000000000000        65.0307355747505     
   218.500000000000        65.0460812174525     
   218.000000000000        65.0614233851622     
   217.500000000000        65.0767165562993     
   217.000000000000        65.0920100137798     
   216.500000000000        65.1072316954130     
   216.000000000000        65.1224540354020     
   215.500000000000        65.1375867408505     
   215.000000000000        65.1527200078652     
   214.500000000000        65.1677503210874     
   214.000000000000        65.1827812087069     
   213.500000000000        65.1977001384916     
   213.000000000000        65.2126195423291     
   212.500000000000        65.2274222741303     
   212.000000000000        65.2422253036526     
   211.500000000000        65.2569106920562     
   211.000000000000        65.2715962523958     
   210.500000000000        65.2861662189693     
   210.000000000000        65.3007362883621     
   209.500000000000        65.3151951640774     
   209.000000000000        65.3296541006398     
   208.500000000000        65.3440079882914     
   208.000000000000        65.3583619123680     
   207.500000000000        65.3726181299731     
   207.000000000000        65.3868743667951     
   206.500000000000        65.4010409616809     
   206.000000000000        65.4152075577484     
   205.500000000000        65.4292929042926     
   205.000000000000        65.4433782343335     
   204.500000000000        65.4573907298815     
   204.000000000000        65.4714031970106     
   203.500000000000        65.4853510449938     
   203.000000000000        65.4992988602629     
   202.500000000000        65.5131899161363     
   202.000000000000        65.5270809393493     
   201.500000000000        65.5409226015792     
   201.000000000000        65.5547642314311     
   200.500000000000        65.5685633702181     
   200.000000000000        65.5823624757793     
   199.500000000000        65.5961253939215     
   199.000000000000        65.6098882778186     
   198.500000000000        65.6236206951409     
   198.000000000000        65.6373530781884     
   197.500000000000        65.6510601307788     
   197.000000000000        65.6647671501859     
   196.500000000000        65.6784533981725     
   196.000000000000        65.6921396144132     
   195.500000000000        65.7058090548946     
   195.000000000000        65.7194784647964     
   194.500000000000        65.7331345488535     
   194.000000000000        65.7467906033707     
   193.500000000000        65.7604362560344     
   193.000000000000        65.7740818803535     
   192.500000000000        65.7877195212518     
   192.000000000000        65.8013571350039     
   191.500000000000        65.8149886980931     
   191.000000000000        65.8286202350097     
   190.500000000000        65.8422471873598     
   190.000000000000        65.8558741143522     
   189.500000000000        65.8694974740953     
   189.000000000000        65.8831208092910     
   188.500000000000        65.8967411622078     
   188.000000000000        65.9103614913757     
   187.500000000000        65.9239790056498     
   187.000000000000        65.9375964968887     
   186.500000000000        65.9512109360542     
   186.000000000000        65.9648253528232     
   185.500000000000        65.9784360870635     
   185.000000000000        65.9920467995058     
   184.500000000000        66.0056528152719     
   184.000000000000        66.0192588097471     
   183.500000000000        66.0328587176178     
   183.000000000000        66.0464586044753     
   182.500000000000        66.0600506452949     
   182.000000000000        66.0736426650689     
   181.500000000000        66.0872247145673     
   181.000000000000        66.1008067428549     
   180.500000000000        66.1143763150038     
   180.000000000000        66.1279458659804     
   179.500000000000        66.1415001149110     
   179.000000000000        66.1550543429615     
   178.500000000000        66.1685900629438     
   178.000000000000        66.1821257622390     
   177.500000000000        66.1956393857745     
   177.000000000000        66.2091529884327     
   176.500000000000        66.2226405831261     
   176.000000000000        66.2361281564754     
   175.500000000000        66.2495854209532     
   175.000000000000        66.2630426636011     
   174.500000000000        66.2764649220824     
   174.000000000000        66.2898871583035     
   173.500000000000        66.3032693534651     
   173.000000000000        66.3166515258818     
   172.500000000000        66.3299882101117     
   172.000000000000        66.3433248710346     
   171.500000000000        66.3566101964309     
   171.000000000000        66.3698954980711     
   170.500000000000        66.3831232052929     
   170.000000000000        66.3963508884463     
   169.500000000000        66.4095142938012     
   169.000000000000        66.4226776742147     
   168.500000000000        66.4357696543181     
   168.000000000000        66.4488616070519     
   167.500000000000        66.4618745818606     
   167.000000000000        66.4748875256883     
   166.500000000000        66.4878134420706     
   166.000000000000        66.5007393250871     
   165.500000000000        66.5135696412449     
   165.000000000000        66.5263999250558     
   164.500000000000        66.5391255923098     
   164.000000000000        66.5518512305241     
   163.500000000000        66.5644626689257     
   163.000000000000        66.5770740797379     
   162.500000000000        66.5895611488503     
   162.000000000000        66.6020481867841     
   161.500000000000        66.6144001570185     
   161.000000000000        66.6267520889095     
   160.500000000000        66.6389576174336     
   160.000000000000        66.6511631021859     
   159.500000000000        66.6632102111424     
   159.000000000000        66.6752572764978     
   158.500000000000        66.6871333260912     
   158.000000000000        66.6990093361778     
   157.500000000000        66.7107009884129     
   157.000000000000        66.7223926038604     
   156.500000000000        66.7338857808668     
   156.000000000000        66.7453789182154     
   155.500000000000        66.7566587609450     
   155.000000000000        66.7679385550855     
   154.500000000000        66.7789893849827     
   154.000000000000        66.7900401554204     
   153.500000000000        66.8008454397584     
   153.000000000000        66.8116506589623     
   152.500000000000        66.8221929768651     
   152.000000000000        66.8327352330301     
   151.500000000000        66.8429962333182     
   151.000000000000        66.8532571795689     
   150.500000000000        66.8632175248529     
   150.000000000000        66.8731778190707     
   149.500000000000        66.8828171240621     
   149.000000000000        66.8924563730567     
   148.500000000000        66.9017531499763     
   148.000000000000        66.9110498628112     
   147.500000000000        66.9199814735974     
   147.000000000000        66.9289130131429     
   146.500000000000        66.9374556158962     
   146.000000000000        66.9459981390550     
   145.500000000000        66.9541266236211     
   145.000000000000        66.9622550175713     
   144.500000000000        66.9699429413492     
   144.000000000000        66.9776307671608     
   143.500000000000        66.9848502986628     
   143.000000000000        66.9920697350268     
   142.500000000000        66.9987915917512     
   142.000000000000        67.0055133616928     
   141.500000000000        67.0117067295067     
   141.000000000000        67.0179000134323     
   140.500000000000        67.0235324577533     
   140.000000000000        67.0291648116147     
   139.500000000000        67.0342021971295     
   139.000000000000        67.0392394811217     
   138.500000000000        67.0436458988373     
   138.000000000000        67.0480522052457     
   137.500000000000        67.0517898960165     
   137.000000000000        67.0555274686894     
   136.500000000000        67.0585567378327     
   136.000000000000        67.0615858839967     
   135.500000000000        67.0638650101150     
   135.000000000000        67.0661440088766     
   134.500000000000        67.0676291496773     
   134.000000000000        67.0691141589649     
   133.500000000000        67.0697592559623     
   133.000000000000        67.0704042182966     
   132.500000000000        67.0701609002234     
   132.000000000000        67.0699174453762     
   131.500000000000        67.0687349275491     
   131.000000000000        67.0675522666806     
   130.500000000000        67.0653772405412     
   130.000000000000        67.0632020525068     
   129.500000000000        67.0599785700088     
   129.000000000000        67.0567548978370     
   128.500000000000        67.0524242734318     
   128.000000000000        67.0480934449949     
   127.500000000000        67.0425941787369     
   127.000000000000        67.0370947230209     
   126.500000000000        67.0303624054967     
   126.000000000000        67.0236299256468     
   125.500000000000        67.0155970988676     
   125.000000000000        67.0075641197855     
   124.500000000000        66.9981601292486     
   124.000000000000        66.9887559713485     
   123.500000000000        66.9779068514674     
   123.000000000000        66.9670575392418     
   122.500000000000        66.9546859261048     
   122.000000000000        66.9423141011368     
   121.500000000000        66.9283391421043     
   121.000000000000        66.9143639610419     
   120.500000000000        66.8987012107808     
   120.000000000000        66.8830382340244     
   119.500000000000        66.8655995453314     
   119.000000000000        66.8481606272446     
   118.500000000000        66.8288540467670     
   118.000000000000        66.8095472335709     
   117.500000000000        66.7882769054321     
   117.000000000000        66.7670063407113     
   116.500000000000        66.7436724190832     
   116.000000000000        66.7203382568508     
   115.500000000000        66.6948368268399     
   115.000000000000        66.6693351524919     
   114.500000000000        66.6415581603425     
   114.000000000000        66.6137809207137     
   113.500000000000        66.5836161147826     
   113.000000000000        66.5534510589992     
   112.500000000000        66.5207819433686     
   112.000000000000        66.4881125763548     
   111.500000000000        66.4528183791445     
   111.000000000000        66.4175239301219     
   110.500000000000        66.3794795885033     
   110.000000000000        66.3414349958960     
   109.500000000000        66.3005111606981     
   109.000000000000        66.2595870765567     
   108.500000000000        66.2156501379771     
   108.000000000000        66.1717129539438     
   107.500000000000        66.1246250918297     
   107.000000000000        66.0775369894909     
   106.500000000000        66.0271562506917     
   106.000000000000        65.9767752785689     
   105.500000000000        65.9229556844714     
   105.000000000000        65.8691358659475     
   104.500000000000        65.8117275523499     
   104.000000000000        65.7543190256084     
   103.500000000000        65.6931684202188     
   103.000000000000        65.6320176152775     
   102.500000000000        65.5669676539780     
   102.000000000000        65.5019175093340     
   101.500000000000        65.4328078961213     
   101.000000000000        65.3636981185866     
   100.500000000000        65.2903656321963     
   100.000000000000        65.2170330035558     
   99.5000000000000        65.1393118544646     
   99.0000000000000        65.0615905884105     
   98.5000000000000        64.9793128298274     
   98.0000000000000        64.8970349829943     
   97.5000000000000        64.8100309791656     
   97.0000000000000        64.7230269194517     
   96.5000000000000        64.6311258749186     
   96.0000000000000        64.5392248111932     
   95.5000000000000        64.4422553647904     
   95.0000000000000        64.3452859427728     
   94.5000000000000        64.2430768312112     
   94.0000000000000        64.1408677939068     
   93.5000000000000        64.0332485803777     
   93.0000000000000        63.9256294855978     
   92.5000000000000        63.8124313433104     
   92.0000000000000        63.6992333499894     
   91.5000000000000        63.5802899294948     
   91.0000000000000        63.4613467003955     
   90.5000000000000        63.3364951213923     
   90.0000000000000        63.2116438228985     
   89.5000000000000        63.0807257384832     
   89.0000000000000        62.9498080461749     
   88.5000000000000        62.8126706968502     
   88.0000000000000        62.6755338147153     
   87.5000000000000        62.5320311216699     
   87.0000000000000        62.3885289280758     
   86.5000000000000        62.2385227411921     
   86.0000000000000        62.0885170917591     
   85.5000000000000        61.9318785619471     
   85.0000000000000        61.7752406464533     
   84.5000000000000        61.6118516244267     
   84.0000000000000        61.4484633262785     
   83.5000000000000        61.2782177690258     
   83.0000000000000        61.1079730550940     
   82.5000000000000        60.9307784584480     
   82.0000000000000        60.7535847991754     
   81.5000000000000        60.5693636435287     
   81.0000000000000        60.3851434649654     
   80.5000000000000        60.1938346982457     
   80.0000000000000        60.0025269494902     
   79.5000000000000        59.8040876043559     
   79.0000000000000        59.6056494175150     
   78.5000000000000        59.4000562512431     
   78.0000000000000        59.1944644386578     
   77.5000000000000        58.9817153291910     
   77.0000000000000        58.7689676682620     
   76.5000000000000        58.5490828575759     
   76.0000000000000        58.3291994697566     
   75.5000000000000        58.1022229584056     
   75.0000000000000        57.8752478547079     
   74.5000000000000        57.6412488776830     
   74.0000000000000        57.4072513831136     
   73.5000000000000        57.1663256770003     
   73.0000000000000        56.9254015779434     
   72.5000000000000        56.6776723669463     
   72.0000000000000        56.4299448510720     
   71.5000000000000        56.1755636294915     
   71.0000000000000        55.9211841092156     
   70.5000000000000        55.6603313098023     
   70.0000000000000        55.3994802010561     
   69.5000000000000        55.1323658173117     
   69.0000000000000        54.8652531919781     
   68.5000000000000        54.5921171903729     
   68.0000000000000        54.3189830260923     
   67.5000000000000        54.0400952709025     
   67.0000000000000        53.7612092822920     
   66.5000000000000        53.4768691134697     
   66.0000000000000        53.1925305396253     
   65.5000000000000        52.9030663980566     
   65.0000000000000        52.6136037932341     
   64.5000000000000        52.3193727366692     
   64.0000000000000        52.0251432654690     
   63.5000000000000        51.7265298464822     
   63.0000000000000        51.4279179590453     
   62.5000000000000        51.1253325882484     
   62.0000000000000        50.8227485695026     
   61.5000000000000        50.5166258789812     
   61.0000000000000        50.2105043895251     
   60.5000000000000        49.9013015059458     
   60.0000000000000        49.5920997331036     
   59.5000000000000        49.2802940914212     
   59.0000000000000        48.9684894391436     
   58.5000000000000        48.6545762028571     
   58.0000000000000        48.3406637794426     
   57.5000000000000        48.0251531353587     
   57.0000000000000        47.7096431273511     
   56.5000000000000        47.3930574716402     
   56.0000000000000        47.0764722776252     
   55.5000000000000        46.7593431519695     
   55.0000000000000        46.4422142831840     
   54.5000000000000        46.1250791364783     
   54.0000000000000        45.8079440503019     
   53.5000000000000        45.4913429935233     
   53.0000000000000        45.1747418357939     
   52.5000000000000        44.8592143135095     
   52.0000000000000        44.5436864928860     
   51.5000000000000        44.2297678396972     
   51.0000000000000        43.9158486490026     
   50.5000000000000        43.6040667699551     
   50.0000000000000        43.2922841635632     
   49.5000000000000        42.9831563591742     
   49.0000000000000        42.6740276836840     
   48.5000000000000        42.3680574547168     
   48.0000000000000        42.0620861928734     
   47.5000000000000        41.7597601565301     
   47.0000000000000        41.4574329187717     
   46.5000000000000        41.1592179966614     
   46.0000000000000        40.8610017558958     
   45.5000000000000        40.5673426097424     
   45.0000000000000        40.2736820621026     
   44.5000000000000        39.9849986483523     
   44.0000000000000        39.6963136607843     
   43.5000000000000        39.4129989288953     
   43.0000000000000        39.1296823880015     
   42.5000000000000        38.8521004951342     
   42.0000000000000        38.5745166964457     
   41.5000000000000        38.3030016627210     
   41.0000000000000        38.0314847758179     
   40.5000000000000        37.7663391433503     
   40.0000000000000        37.5011917278725     
   39.5000000000000        37.2426853959661     
   39.0000000000000        36.9841772639408     
   38.5000000000000        36.7325466525505     
   38.0000000000000        36.4809140285266     
   37.5000000000000        36.2363615780817     
   37.0000000000000        35.9918069339150     
   36.5000000000000        35.7545014027261     
   36.0000000000000        35.5171938865044     
   35.5000000000000        35.2872709614572     
   35.0000000000000        35.0573463555323     
   34.5000000000000        34.8349087222315     
   34.0000000000000        34.6124693511879     
   33.5000000000000        34.3975871550168     
   33.0000000000000        34.1827030953952     
   32.5000000000000        33.9754158243837     
   32.0000000000000        33.7681269533186     
   31.5000000000000        33.5684458132711     
   31.0000000000000        33.3687634198511     
   30.5000000000000        33.1766733064242     
   30.0000000000000        32.9845820398143     
   29.5000000000000        32.8000444975190     
   29.0000000000000        32.6155059191134     
   28.5000000000000        32.4384638256780     
   28.0000000000000        32.2614210056167     
   27.5000000000000        32.0918042994736     
   27.0000000000000        31.9221872014289     
   26.5000000000000        31.7599200683708     
   26.0000000000000        31.5976535778976     
   25.5000000000000        31.4426648085853     
   25.0000000000000        31.2876778480731     
   24.5000000000000        31.1399117408434     
   24.0000000000000        30.9921482173269     
   23.5000000000000        30.8515805701071     
   23.0000000000000        30.7110185178379     
   22.5000000000000        30.5776775837597     
   22.0000000000000        30.4443487858960     
   21.5000000000000        30.3183432904193     
   21.0000000000000        30.1923589322199     
   20.5000000000000        30.0739129640001     
   20.0000000000000        29.9554941392147     
   19.5000000000000        29.8449839853347     
   19.0000000000000        29.7345033061657     
   18.5000000000000        29.6325036591051     
   18.0000000000000        29.5305370308130     
   17.5000000000000        29.4378917482452     
   17.0000000000000        29.3452878371819     
   16.5000000000000        29.2631798261762     
   16.0000000000000        29.1811233183344     
   15.5000000000000        29.1111749388349     
   15.0000000000000        29.0412789984029     
   14.5000000000000        28.9856750368668     
   14.0000000000000        28.9301173540415     
   13.5000000000000        28.8917184174799     
   13.0000000000000        28.8534084272267     
   12.5000000000000        28.8360421019758     
   12.0000000000000        28.8187115703206     
   11.5000000000000        28.8273259413844     
   11.0000000000000        28.8359870217139     
   10.5000000000000        28.8771640531262     
   10.0000000000000        28.9185340763414     
   9.50000000000000        29.0012013155816     
   9.00000000000000        29.0842801558740     
   8.50000000000000        29.2206172175930     
   8.00000000000000        29.3576612773753     
   7.50000000000000        29.5653584191935     
   7.00000000000000        29.7728455215730     
   6.50000000000000        30.0772067486286     
   6.00000000000000        30.3800473793530     
   5.50000000000000        30.8187154001081     
   5.00000000000000        31.2600100624922     
   4.50000000000000        31.8956098225804     
   4.00000000000000        32.5445913384870     
   3.50000000000000        33.5028392610911     
   3.00000000000000        34.4689390526745     
   2.50000000000000        36.0095791088275     
   2.00000000000000        37.5055326030691     
   1.50000000000000        40.1593922600711     
   1.00000000000000        43.1511530903452     
  0.500000000000000        49.1765499923291     
  0.000000000000000E+000   62.1249339967877     
