 Regular grid output with number of points:          101         101
 grid spacing:    1.000000000000000E-002  1.000000000000000E-002
 aspect ration:    1.00000000000000     
  1.000000000000000E-002
