%!PS-Adobe-3.0 EPSF-3.0
%%BoundingBox: (atend)
%%HiResBoundingBox: (atend)
%%Title: GMT v4.5.3 [64-bit] Document from psbasemap
%%Creator: GMT
%%For: pvankeken
%%DocumentNeededResources: font Helvetica Bookman-Light
%%CreationDate: Tue Dec  1 11:06:02 2020
%%LanguageLevel: 2
%%DocumentData: Clean7Bit
%%Orientation: Landscape
%%EndComments

%%BeginProlog
250 dict begin
/! {bind def} bind def
/# {load def}!
/A /setgray #
/B /setdash #
/C /setrgbcolor #
/D /rlineto #
/E {dup stringwidth pop}!
/F /fill #
/G /rmoveto #
/H /sethsbcolor #
/I /setpattern #
/K /setcmykcolor #
/L /lineto #
/M {stroke moveto}!
/m /moveto #
/N /newpath #
/P /closepath #
/R /rotate #
/S /stroke #
/T /translate #
/U /grestore #
/V /gsave #
/W /setlinewidth #
/Y {findfont exch scalefont setfont}!
/Z /show #
/FP {true charpath flattenpath}!
/MS {/savematrix matrix currentmatrix def}!
/MR {savematrix setmatrix}!
/O {S 3 -1 roll 0 360 arc P F S}!
/X {M 1.414213562 mul 5 {dup} repeat -2 div dup G D neg 0 G neg D S}!
/x {M dup 0 G dup -2 mul dup 0 D exch dup G 0 exch D S}!
/FS {/fc exch def /fs {V fc F U} def}!
/FQ {/fs {} def}!
/O0 {/os {N} def}!
/O1 {/os {S} def}!
/SP {M {D} repeat P fs os}!
/SV {0 exch M 0 D D D D D 0 D P fs os}!
/Sv {0 0 M D D 0 D D D D D 0 D D P fs os}!
/SB {M dup 0 D exch 0 exch D neg 0 D P fs os}!
/SC {S 3 -1 roll 0 360 arc P fs os}!
/SE {S MS T R scale 0 0 1 0 360 arc MR P fs os}!
/SD {M 4 {dup} repeat 0 G neg dup dup D exch D D P fs os}!
/SR {M MS R dup -2 div 0 G exch dup -2 div 0 exch G exch dup 0 D exch 0 exch D neg 0 D MR P fs os}!
/SS {M 1.414213562 mul dup dup dup -2 div dup G 0 D 0 exch D neg 0 D P fs os}!
/ST {M MS dup 0 exch G -60 R 1.732050808 mul dup 0 D -120 R 0 D MR P fs os}!
/SI {M MS dup neg 0 exch G 60 R 1.732050808 mul dup 0 D 120 R 0 D MR P fs os}!
/SA {M MS dup 0 exch G 0.726542528 mul -72 R dup 0 D 4 {72 R dup 0 D -144 R dup 0 D} repeat pop MR P fs os}!
/SH {M MS dup 0 G -120 R dup 0 D 4 {-60 R dup 0 D} repeat pop MR P fs os}!
/SN {M MS dup 0 exch G -36 R 1.175570505 mul dup 0 D 3 {-72 R dup 0 D} repeat pop MR P fs os}!
/SO {M MS 22.5 R dup 0 exch G -22.5 R 0.765366865 mul dup 0 D 6 {-45 R dup 0 D} repeat pop MR P fs os}!
/SW {S 2 copy 7 -3 roll arc L P fs os}!
/PSL_reencode {findfont dup length dict begin
  {1 index /FID ne {def}{pop pop} ifelse} forall
  exch /Encoding exch def currentdict end definefont pop
}!
/PSL_eps_begin {
  /PSL_eps_state save def
  /PSL_dict_count countdictstack def
  /PSL_op_count count 1 sub def
  userdict begin
  /showpage {} def
  0 setgray 0 setlinecap 1 setlinewidth
  0 setlinejoin 10 setmiterlimit [] 0 setdash newpath
  /languagelevel where
  {pop languagelevel 1 ne {false setstrokeadjust false setoverprint} if} if
}!
/PSL_eps_end {
  count PSL_op_count sub {pop} repeat
  countdictstack PSL_dict_count sub {end} repeat
  PSL_eps_state restore
}!
/ISOLatin1+_Encoding [
/.notdef	/.notdef	/.notdef	/.notdef	/.notdef	/.notdef	/.notdef	/.notdef
/.notdef	/.notdef	/.notdef	/.notdef	/.notdef	/.notdef	/.notdef	/.notdef
/.notdef	/.notdef	/.notdef	/.notdef	/.notdef	/.notdef	/.notdef	/.notdef
/.notdef	/bullet		/ellipsis	/trademark	/emdash		/endash		/fi		/zcaron
/space		/exclam		/quotedbl	/numbersign	/dollar		/percent	/ampersand	/quoteright
/parenleft	/parenright	/asterisk	/plus		/comma		/minus		/period		/slash
/zero		/one		/two		/three		/four		/five		/six		/seven
/eight		/nine		/colon		/semicolon	/less		/equal		/greater	/question
/at		/A		/B		/C		/D		/E		/F		/G
/H		/I		/J		/K		/L		/M		/N		/O
/P		/Q		/R		/S		/T		/U		/V		/W
/X		/Y		/Z		/bracketleft	/backslash	/bracketright	/asciicircum	/underscore
/quoteleft	/a		/b		/c 		/d		/e		/f		/g
/h		/i		/j		/k		/l		/m		/n		/o
/p		/q		/r		/s		/t		/u		/v		/w
/x		/y		/z		/braceleft	/bar		/braceright	/asciitilde	/scaron
/OE		/dagger		/daggerdbl	/Lslash		/fraction	/guilsinglleft	/Scaron		/guilsinglright
/oe		/Ydieresis	/Zcaron		/lslash		/perthousand	/quotedblbase	/quotedblleft	/quotedblright
/dotlessi	/grave		/acute		/circumflex	/tilde		/macron		/breve		/dotaccent
/dieresis	/quotesinglbase	/ring		/cedilla	/quotesingle	/hungarumlaut	/ogonek		/caron
/space		/exclamdown	/cent		/sterling	/currency	/yen		/brokenbar	/section
/dieresis	/copyright	/ordfeminine	/guillemotleft	/logicalnot	/hyphen		/registered	/macron
/degree		/plusminus	/twosuperior	/threesuperior	/acute		/mu		/paragraph	/periodcentered
/cedilla	/onesuperior	/ordmasculine	/guillemotright	/onequarter	/onehalf	/threequarters	/questiondown
/Agrave		/Aacute		/Acircumflex	/Atilde		/Adieresis	/Aring		/AE		/Ccedilla
/Egrave		/Eacute		/Ecircumflex	/Edieresis	/Igrave		/Iacute		/Icircumflex	/Idieresis
/Eth		/Ntilde		/Ograve		/Oacute		/Ocircumflex	/Otilde		/Odieresis	/multiply
/Oslash		/Ugrave		/Uacute		/Ucircumflex	/Udieresis	/Yacute		/Thorn		/germandbls
/agrave		/aacute		/acircumflex	/atilde		/adieresis	/aring		/ae		/ccedilla
/egrave		/eacute		/ecircumflex	/edieresis	/igrave		/iacute		/icircumflex	/idieresis
/eth		/ntilde		/ograve		/oacute		/ocircumflex	/otilde		/odieresis	/divide
/oslash		/ugrave		/uacute		/ucircumflex	/udieresis	/yacute		/thorn		/ydieresis
] def
/PSL_font_encode 0 0 0 0 0 0 0 0 0 0 0 0 0 0 0 0 0 0 0 0 0 0 0 0 0 0 0 0 0 0 0 0 0 0 0 35 array astore def
/F0 {/Helvetica Y}!
/F1 {/Helvetica-Bold Y}!
/F2 {/Helvetica-Oblique Y}!
/F3 {/Helvetica-BoldOblique Y}!
/F4 {/Times-Roman Y}!
/F5 {/Times-Bold Y}!
/F6 {/Times-Italic Y}!
/F7 {/Times-BoldItalic Y}!
/F8 {/Courier Y}!
/F9 {/Courier-Bold Y}!
/F10 {/Courier-Oblique Y}!
/F11 {/Courier-BoldOblique Y}!
/F12 {/Symbol Y}!
/F13 {/AvantGarde-Book Y}!
/F14 {/AvantGarde-BookOblique Y}!
/F15 {/AvantGarde-Demi Y}!
/F16 {/AvantGarde-DemiOblique Y}!
/F17 {/Bookman-Demi Y}!
/F18 {/Bookman-DemiItalic Y}!
/F19 {/Bookman-Light Y}!
/F20 {/Bookman-LightItalic Y}!
/F21 {/Helvetica-Narrow Y}!
/F22 {/Helvetica-Narrow-Bold Y}!
/F23 {/Helvetica-Narrow-Oblique Y}!
/F24 {/Helvetica-Narrow-BoldOblique Y}!
/F25 {/NewCenturySchlbk-Roman Y}!
/F26 {/NewCenturySchlbk-Italic Y}!
/F27 {/NewCenturySchlbk-Bold Y}!
/F28 {/NewCenturySchlbk-BoldItalic Y}!
/F29 {/Palatino-Roman Y}!
/F30 {/Palatino-Italic Y}!
/F31 {/Palatino-Bold Y}!
/F32 {/Palatino-BoldItalic Y}!
/F33 {/ZapfChancery-MediumItalic Y}!
/F34 {/ZapfDingbats Y}!
/PSL_pathtextdict 26 dict def
/PSL_pathtext
  { PSL_pathtextdict begin
    /textheight exch def
    /just exch def
    /offset exch def
    /str exch def
    /pathdist 0 def
    /setdist offset def
    /charcount 0 def
    /justy just 4 idiv textheight mul 2 div neg def
    V flattenpath
	{movetoproc} {linetoproc}
	{curvetoproc} {closepathproc}
	pathforall
    U N
    end
  } def
PSL_pathtextdict begin
/movetoproc
  { /newy exch def /newx exch def
    /firstx newx def /firsty newy def
    /ovr 0 def
    newx newy transform
    /cpy exch def /cpx exch def
  } def
/linetoproc
  { /oldx newx def /oldy newy def
    /newy exch def /newx exch def
    /dx newx oldx sub def
    /dy newy oldy sub def
    /dist dx dup mul dy dup mul add sqrt def
    dist 0 ne
    { /dsx dx dist div ovr mul def
      /dsy dy dist div ovr mul def
      oldx dsx add oldy dsy add transform
      /cpy exch def /cpx exch def
      /pathdist pathdist dist add def
      { setdist pathdist le
	  { charcount str length lt
	      {setchar} {exit} ifelse }
	  { /ovr setdist pathdist sub def
	    exit }
	  ifelse
      } loop
    } if
  } def
/curvetoproc
  { (ERROR: No curveto's after flattenpath!)
    print
  } def
/closepathproc
  { firstx firsty linetoproc
    firstx firsty movetoproc
  } def
/setchar
  { /char str charcount 1 getinterval def
    /charcount charcount 1 add def
    /charwidth char stringwidth pop def
    V cpx cpy itransform T
      dy dx atan R
      0 justy m
      char show
      0 justy neg G
      currentpoint transform
      /cpy exch def /cpx exch def
    U /setdist setdist charwidth add def
  } def
end
/PSL_curved_text_labels
{ /bits exch def
  /PSL_clippath bits 1 and 1 eq def
  /PSL_placetext bits 2 and 0 eq def
  /PSL_strokeline bits 4 and 4 eq def
  /PSL_firstcall bits 32 and 32 eq def
  /PSL_lastcall bits 64 and 64 eq def
  /PSL_fillbox bits 128 and 128 eq def
  /PSL_drawbox bits 256 and 256 eq def
  /PSL_n1 PSL_n 1 sub def
  /PSL_m1 PSL_m 1 sub def
  /PSL_usebox PSL_fillbox PSL_drawbox or def
  PSL_CT_calcstringwidth
  PSL_CT_calclinedist
  PSL_CT_addcutpoints
  PSL_clippath PSL_firstcall and
  { V N clippath } if
  PSL_setlinepen
  /PSL_nn1 PSL_nn 1 sub def
  /n 0 def
  /k 0 def
  /j 0 def
  /PSL_seg 0 def
  /PSL_xp PSL_nn array def
  /PSL_yp PSL_nn array def
  PSL_xp 0 PSL_xx 0 get put
  PSL_yp 0 PSL_yy 0 get put
  1 1 PSL_nn1
  { /i exch def
    /node_type PSL_kind i get def
    /j j 1 add def
    PSL_xp j PSL_xx i get put
    PSL_yp j PSL_yy i get put
    node_type 1 eq
    { n 0 eq
      { PSL_CT_drawline }
      {	PSL_CT_reversepath
	PSL_CT_textline } ifelse
      /j 0 def
      PSL_xp j PSL_xx i get put
      PSL_yp j PSL_yy i get put
    } if
  } for
  n 0 eq {PSL_CT_drawline} if
  PSL_lastcall
  { PSL_clippath
    { clip /PSL_clip_on true def } if N
  } if
} def
/PSL_CT_textline
{ PSL_placetext
  { PSL_clippath
    { PSL_CT_clippath }
    { PSL_CT_placelabel } ifelse
  } if
  /n 0 def /k k 1 add def PSL_setlinepen
} def
/PSL_CT_calcstringwidth
{ /PSL_width PSL_m array def
  0 1 PSL_m1
  { /i exch def
    PSL_width i PSL_str i get stringwidth pop put
  } for
} def
/PSL_CT_calclinedist
{ /PSL_newx PSL_x 0 get def
  /PSL_newy PSL_y 0 get def
  /dist 0.0 def
  /PSL_dist PSL_n array def
  PSL_dist 0 0.0 put
  1 1 PSL_n1
  { /i exch def
    /PSL_oldx PSL_newx def
    /PSL_oldy PSL_newy def
    /PSL_newx PSL_x i get def
    /PSL_newy PSL_y i get def
    /dx PSL_newx PSL_oldx sub def
    /dy PSL_newy PSL_oldy sub def
    /dist dist dx dx mul dy dy mul add sqrt add def
    PSL_dist i dist put
  } for
} def
/PSL_CT_addcutpoints
{ /k 0 def
  /PSL_nc PSL_m 2 mul 1 add def
  /PSL_cuts PSL_nc array def
  /PSL_nc1 PSL_nc 1 sub def
  0 1 PSL_m1
  { /i exch def
    /dist PSL_dist PSL_node i get get def
    /halfwidth PSL_width i get 2 div PSL_gap_x add def
    PSL_cuts k dist halfwidth sub put
    /k k 1 add def
    PSL_cuts k dist halfwidth add put
    /k k 1 add def
  } for
  PSL_cuts k 100000.0 put
  /PSL_nn PSL_n PSL_m 2 mul add def
  /PSL_xx PSL_nn array def
  /PSL_yy PSL_nn array def
  /PSL_kind PSL_nn array def
  /j 0 def
  /k 0 def
  /dist 0.0 def
  0 1 PSL_n1
  { /i exch def
    /last_dist dist def
    /dist PSL_dist i get def
    k 1 PSL_nc1
    { /kk exch def
      /this_cut PSL_cuts kk get def
      dist this_cut gt
      { /ds dist last_dist sub def
	/f ds 0.0 eq {0.0} {dist this_cut sub ds div} ifelse def
	/i1 i 0 eq { 0 } { i 1 sub } ifelse def
	PSL_xx j PSL_x i get dup PSL_x i1 get sub f mul sub put
	PSL_yy j PSL_y i get dup PSL_y i1 get sub f mul sub put
	PSL_kind j 1 put
	/j j 1 add def
	/k k 1 add def
      } if
    } for
    dist PSL_cuts k get le
    { PSL_xx j PSL_x i get put PSL_yy j PSL_y i get put
      PSL_kind j 0 put
      /j j 1 add def
    } if
  } for
} def
/PSL_CT_reversepath
{ PSL_xp j get PSL_xp 0 get lt
  { 0 1 j 2 idiv
    { /left exch def
      /right j left sub def
      /tmp PSL_xp left get def
      PSL_xp left PSL_xp right get put
      PSL_xp right tmp put
      /tmp PSL_yp left get def
      PSL_yp left PSL_yp right get put
      PSL_yp right tmp put
    } for
  } if
} def
/PSL_CT_placelabel
{
  PSL_usebox
  { PSL_CT_clippath
    PSL_fillbox
    { V PSL_setboxrgb fill U } if
    PSL_drawbox
    { PSL_setboxpen S } if N
  } if
  PSL_settxtrgb PSL_CT_placeline PSL_str k get PSL_gap_x PSL_just PSL_height PSL_pathtext
} def
/PSL_CT_clippath
{
  /H PSL_height 2 div PSL_gap_y add def
  /xoff j 1 add array def
  /yoff j 1 add array def
  /angle 0 def
  0 1 j {
    /ii exch def
    /x PSL_xp ii get def
    /y PSL_yp ii get def
    ii 0 eq {
      /x1 PSL_xp 1 get def
      /y1 PSL_yp 1 get def
      /dx x1 x sub def
      /dy y1 y sub def
    }
    { /i1 ii 1 sub def
      /x1 PSL_xp i1 get def
      /y1 PSL_yp i1 get def
      /dx x x1 sub def
      /dy y y1 sub def
    } ifelse
    dx 0.0 ne dy 0.0 ne and
    { /angle dy dx atan 90 add def } if
    /sina angle sin def
    /cosa angle cos def
    xoff ii H cosa mul put
    yoff ii H sina mul put
  } for
  PSL_xp 0 get xoff 0 get add PSL_yp 0 get yoff 0 get add m
  1 1 j {
    /ii exch def
    PSL_xp ii get xoff ii get add PSL_yp ii get yoff ii get add L
  } for
  j -1 0 {
    /ii exch def
    PSL_xp ii get xoff ii get sub PSL_yp ii get yoff ii get sub L
  } for P
} def
/PSL_CT_drawline
{
  /str 20 string def
  PSL_strokeline
  { PSL_CT_placeline PSL_setlinepen S } if
  /PSL_seg PSL_seg 1 add def
  /n 1 def
} def
/PSL_CT_placeline
{ PSL_xp 0 get PSL_yp 0 get m
  1 1 j { /ii exch def PSL_xp ii get PSL_yp ii get L} for
} def
/PSL_straight_text_labels
{
  /bits exch def
  /PSL_clippath bits 1 and 0 eq def
  /PSL_rounded bits 16 and 16 eq def
  /PSL_fillbox bits 128 and 128 eq def
  /PSL_drawbox bits 256 and 256 eq def
  /PSL_m1 PSL_m 1 sub def
  /PSL_justx PSL_just 4 mod 1 sub 2 div neg def
  /PSL_justy PSL_just 4 idiv PSL_height mul 2 div neg def
  /PSL_usebox PSL_fillbox PSL_drawbox or def
  PSL_clippath
  { PSL_ST_clippath }
  { PSL_usebox { PSL_ST_clippath } if
    PSL_ST_placelabel
  } ifelse
} def
/PSL_ST_placelabel
{ PSL_settxtrgb
  0 1 PSL_m1
  { /k exch def
    /xp PSL_txt_x k get def
    /yp PSL_txt_y k get def
    V PSL_txt_x k get PSL_txt_y k get T
    PSL_angle k get R
    /BoxW PSL_str k get stringwidth pop def
    BoxW PSL_justx mul PSL_justy m
    PSL_str k get show
    U
  } for
} def
/PSL_ST_clippath
{ PSL_rounded { PSL_ST_clippath_round } { PSL_ST_clippath_rect } ifelse
  PSL_usebox
  { PSL_fillbox
    { V PSL_setboxrgb fill U } if
    PSL_drawbox
    { PSL_setboxpen S } if N
  }
  { clip /PSL_clip_on true def
  } ifelse
  N
} def
/PSL_ST_clippath_rect
{ N
  /BoxH PSL_height PSL_gap_y 2 mul add def
  /DelY BoxH BoxH 0 3 array astore def
  PSL_usebox not { V clippath } if
  0 1 PSL_m1
  { /k exch def
    /xp PSL_txt_x k get def
    /yp PSL_txt_y k get def
    /MAT PSL_angle k get matrix R def
    /BoxW PSL_str k get stringwidth pop PSL_gap_x 2 mul add def
    /x0 0 BoxW PSL_justx mul add def
    /y0 0 PSL_justy add PSL_gap_y sub def
    /DelX 0 BoxW BoxW 3 array astore def
    x0 y0 MAT transform
    /dy exch def /dx exch def
    xp dx add yp dy add m
    0 1 2
    {
      /ii exch def
      x0 DelX ii get add y0 DelY ii get add MAT transform
      /dy exch def /dx exch def
      xp dx add yp dy add L
    } for P
  } for
} def
/PSL_ST_clippath_round
{ N
  /PSL_justy2 PSL_just 4 idiv 2 div neg def
  /PSL_r PSL_gap_x PSL_gap_y lt { PSL_gap_x } { PSL_gap_y } ifelse def
  /PSL_dx PSL_gap_x PSL_r sub def
  /PSL_dy PSL_gap_y PSL_r sub def
  /PSL_r2 PSL_r 2 mul def
  /BoxH PSL_height PSL_dy 2 mul add def
  /y0 PSL_height PSL_gap_y 2 mul add PSL_justy2 mul def
  PSL_usebox not { V clippath } if
  0 1 PSL_m1
  { /k exch def
    /xp PSL_txt_x k get def
    /yp PSL_txt_y k get def
    /PSL_width PSL_str k get stringwidth pop def
    /BoxW PSL_width PSL_dx 2 mul add def
    /x0 BoxW PSL_justx mul def
    xp yp T PSL_angle k get R x0 y0 T
    0 0 m
    BoxW PSL_r add 0 BoxW PSL_r add PSL_r PSL_r arct
    BoxW PSL_r add BoxH PSL_r2 add BoxW BoxH PSL_r2 add PSL_r arct
    PSL_r neg BoxH PSL_r2 add PSL_r neg BoxH PSL_r add PSL_r arct
    PSL_r neg 0 0 0 PSL_r arct P
    x0 neg y0 neg T PSL_angle k get neg R xp neg yp neg T
  } for
} def
/PSL_clip_on false def
%%EndProlog

%%BeginSetup
/PSLevel /languagelevel where {pop languagelevel} {1} ifelse def
%%EndSetup

%%BeginPageSetup
595 0 T 90 R
0.24 0.24 scale
%%EndPageSetup

PSL_font_encode 0 get 0 eq {ISOLatin1+_Encoding /Helvetica /Helvetica PSL_reencode PSL_font_encode 0 1 put} if
PSL_font_encode 19 get 0 eq {ISOLatin1+_Encoding /Bookman-Light /Bookman-Light PSL_reencode PSL_font_encode 19 1 put} if
0 setlinecap
0 setlinejoin
3.32551 setmiterlimit
295.276 295.276 T

%% PostScript produced by:
%%GMT:  psbasemap -JX15c/10c -R1.94/2/6.15/7.25 -K -Ba0.01/a0.2WSne
%%PROJ: xy 1.94000000 2.00000000 6.15000000 7.25000000 1.940 2.000 6.150 7.250 +xy +a=6378137.000 +b=6356752.314245
S 0 A
90 R
/PSL_sign 1 def
/PSL_do_annot 1 def
/PSL_do_label 0 def
/PSL_do_A1 0 def
/PSL_TL1 24 def
/PSL_AO0 24 def
/PSL_AO1 24 def
/PSL_LO 35 def
/PSL_AF0 42 def
/PSL_AF1 67 def
/PSL_LF 42 def
/PSL_AH0 0 def
/PSL_AH1 0 def
0 0 M 42 F19 (M) E /PSL_dim_w exch def FP pathbbox N /PSL_dim_h exch def pop /PSL_dim_d exch def pop
PSL_dim_h PSL_dim_d sub /PSL_LH exch def
S 4 W
0 0 M 1181 0 D S
S 2 W
54 0 M 0 24 D S
268 0 M 0 24 D S
483 0 M 0 24 D S
698 0 M 0 24 D S
913 0 M 0 24 D S
1127 0 M 0 24 D S
0 0 M 42 F19 (6.2) E /PSL_dim_w exch def FP pathbbox N /PSL_dim_h exch def pop /PSL_dim_d exch def pop
PSL_dim_w PSL_AH0 gt {/PSL_AH0 PSL_dim_w def} if
0 0 M 42 F19 (6.4) E /PSL_dim_w exch def FP pathbbox N /PSL_dim_h exch def pop /PSL_dim_d exch def pop
PSL_dim_w PSL_AH0 gt {/PSL_AH0 PSL_dim_w def} if
0 0 M 42 F19 (6.6) E /PSL_dim_w exch def FP pathbbox N /PSL_dim_h exch def pop /PSL_dim_d exch def pop
PSL_dim_w PSL_AH0 gt {/PSL_AH0 PSL_dim_w def} if
0 0 M 42 F19 (6.8) E /PSL_dim_w exch def FP pathbbox N /PSL_dim_h exch def pop /PSL_dim_d exch def pop
PSL_dim_w PSL_AH0 gt {/PSL_AH0 PSL_dim_w def} if
0 0 M 42 F19 (7.0) E /PSL_dim_w exch def FP pathbbox N /PSL_dim_h exch def pop /PSL_dim_d exch def pop
PSL_dim_w PSL_AH0 gt {/PSL_AH0 PSL_dim_w def} if
0 0 M 42 F19 (7.2) E /PSL_dim_w exch def FP pathbbox N /PSL_dim_h exch def pop /PSL_dim_d exch def pop
PSL_dim_w PSL_AH0 gt {/PSL_AH0 PSL_dim_w def} if
54 0 M 0 12 D S
268 0 M 0 12 D S
483 0 M 0 12 D S
698 0 M 0 12 D S
913 0 M 0 12 D S
1127 0 M 0 12 D S
/PSL_A0_y PSL_AO0 PSL_TL1 PSL_AO0 mul 0 gt {PSL_TL1 add} if PSL_AO0 0 gt {PSL_sign 0 lt {PSL_AH0} {0} ifelse add} if PSL_sign mul def
/PSL_A1_y PSL_A0_y abs PSL_AO1 add PSL_sign 0 lt {PSL_AH1} {PSL_AH0} ifelse add PSL_sign mul def
/PSL_L_y PSL_A1_y abs PSL_LO add PSL_sign 0 lt {PSL_LH} {PSL_AH1} ifelse add PSL_sign mul def
/PSL_x 54 def
PSL_x PSL_A0_y M
currentpoint /PSL_save_y exch def /PSL_save_x exch def
0 0 M 42 F19 (6.2) E /PSL_dim_w exch def FP pathbbox N /PSL_dim_h exch def pop /PSL_dim_d exch def pop
PSL_save_x PSL_save_y m
V -90 R PSL_dim_w neg PSL_dim_h 2 div neg G 42 F19 (6.2) Z U
/PSL_x 268 def
PSL_x PSL_A0_y M
currentpoint /PSL_save_y exch def /PSL_save_x exch def
0 0 M 42 F19 (6.4) E /PSL_dim_w exch def FP pathbbox N /PSL_dim_h exch def pop /PSL_dim_d exch def pop
PSL_save_x PSL_save_y m
V -90 R PSL_dim_w neg PSL_dim_h 2 div neg G 42 F19 (6.4) Z U
/PSL_x 483 def
PSL_x PSL_A0_y M
currentpoint /PSL_save_y exch def /PSL_save_x exch def
0 0 M 42 F19 (6.6) E /PSL_dim_w exch def FP pathbbox N /PSL_dim_h exch def pop /PSL_dim_d exch def pop
PSL_save_x PSL_save_y m
V -90 R PSL_dim_w neg PSL_dim_h 2 div neg G 42 F19 (6.6) Z U
/PSL_x 698 def
PSL_x PSL_A0_y M
currentpoint /PSL_save_y exch def /PSL_save_x exch def
0 0 M 42 F19 (6.8) E /PSL_dim_w exch def FP pathbbox N /PSL_dim_h exch def pop /PSL_dim_d exch def pop
PSL_save_x PSL_save_y m
V -90 R PSL_dim_w neg PSL_dim_h 2 div neg G 42 F19 (6.8) Z U
/PSL_x 913 def
PSL_x PSL_A0_y M
currentpoint /PSL_save_y exch def /PSL_save_x exch def
0 0 M 42 F19 (7.0) E /PSL_dim_w exch def FP pathbbox N /PSL_dim_h exch def pop /PSL_dim_d exch def pop
PSL_save_x PSL_save_y m
V -90 R PSL_dim_w neg PSL_dim_h 2 div neg G 42 F19 (7.0) Z U
/PSL_x 1127 def
PSL_x PSL_A0_y M
currentpoint /PSL_save_y exch def /PSL_save_x exch def
0 0 M 42 F19 (7.2) E /PSL_dim_w exch def FP pathbbox N /PSL_dim_h exch def pop /PSL_dim_d exch def pop
PSL_save_x PSL_save_y m
V -90 R PSL_dim_w neg PSL_dim_h 2 div neg G 42 F19 (7.2) Z U
-90 R
1771.65 0 T 90 R
/PSL_sign -1 def
/PSL_do_annot 0 def
/PSL_do_label 0 def
/PSL_do_A1 0 def
/PSL_TL1 24 def
/PSL_AO0 24 def
/PSL_AO1 24 def
/PSL_LO 35 def
/PSL_AF0 42 def
/PSL_AF1 67 def
/PSL_LF 42 def
/PSL_AH0 0 def
/PSL_AH1 0 def
0 0 M 42 F19 (M) E /PSL_dim_w exch def FP pathbbox N /PSL_dim_h exch def pop /PSL_dim_d exch def pop
PSL_dim_h PSL_dim_d sub /PSL_LH exch def
S 4 W
0 0 M 1181 0 D S
S 2 W
54 0 M 0 -24 D S
268 0 M 0 -24 D S
483 0 M 0 -24 D S
698 0 M 0 -24 D S
913 0 M 0 -24 D S
1127 0 M 0 -24 D S
54 0 M 0 -12 D S
268 0 M 0 -12 D S
483 0 M 0 -12 D S
698 0 M 0 -12 D S
913 0 M 0 -12 D S
1127 0 M 0 -12 D S
/PSL_A0_y PSL_AO0 PSL_TL1 PSL_AO0 mul 0 gt {PSL_TL1 add} if PSL_AO0 0 gt {PSL_sign 0 lt {PSL_AH0} {0} ifelse add} if PSL_sign mul def
/PSL_A1_y PSL_A0_y abs PSL_AO1 add PSL_sign 0 lt {PSL_AH1} {PSL_AH0} ifelse add PSL_sign mul def
/PSL_L_y PSL_A1_y abs PSL_LO add PSL_sign 0 lt {PSL_LH} {PSL_AH1} ifelse add PSL_sign mul def
-90 R -1771.65 0 T
/PSL_sign -1 def
/PSL_do_annot 1 def
/PSL_do_label 0 def
/PSL_do_A1 0 def
/PSL_TL1 24 def
/PSL_AO0 24 def
/PSL_AO1 24 def
/PSL_LO 35 def
/PSL_AF0 42 def
/PSL_AF1 67 def
/PSL_LF 42 def
/PSL_AH0 0 def
/PSL_AH1 0 def
0 0 M 42 F19 (M) E /PSL_dim_w exch def FP pathbbox N /PSL_dim_h exch def pop /PSL_dim_d exch def pop
PSL_dim_h PSL_dim_d sub /PSL_LH exch def
S 4 W
0 0 M 1772 0 D S
S 2 W
0 0 M 0 -24 D S
295 0 M 0 -24 D S
591 0 M 0 -24 D S
886 0 M 0 -24 D S
1181 0 M 0 -24 D S
1476 0 M 0 -24 D S
1772 0 M 0 -24 D S
0 0 M 42 F19 (1.94) E /PSL_dim_w exch def FP pathbbox N /PSL_dim_h exch def pop /PSL_dim_d exch def pop
PSL_dim_h PSL_AH0 gt {/PSL_AH0 PSL_dim_h def} if
0 0 M 42 F19 (1.95) E /PSL_dim_w exch def FP pathbbox N /PSL_dim_h exch def pop /PSL_dim_d exch def pop
PSL_dim_h PSL_AH0 gt {/PSL_AH0 PSL_dim_h def} if
0 0 M 42 F19 (1.96) E /PSL_dim_w exch def FP pathbbox N /PSL_dim_h exch def pop /PSL_dim_d exch def pop
PSL_dim_h PSL_AH0 gt {/PSL_AH0 PSL_dim_h def} if
0 0 M 42 F19 (1.97) E /PSL_dim_w exch def FP pathbbox N /PSL_dim_h exch def pop /PSL_dim_d exch def pop
PSL_dim_h PSL_AH0 gt {/PSL_AH0 PSL_dim_h def} if
0 0 M 42 F19 (1.98) E /PSL_dim_w exch def FP pathbbox N /PSL_dim_h exch def pop /PSL_dim_d exch def pop
PSL_dim_h PSL_AH0 gt {/PSL_AH0 PSL_dim_h def} if
0 0 M 42 F19 (1.99) E /PSL_dim_w exch def FP pathbbox N /PSL_dim_h exch def pop /PSL_dim_d exch def pop
PSL_dim_h PSL_AH0 gt {/PSL_AH0 PSL_dim_h def} if
0 0 M 42 F19 (2.00) E /PSL_dim_w exch def FP pathbbox N /PSL_dim_h exch def pop /PSL_dim_d exch def pop
PSL_dim_h PSL_AH0 gt {/PSL_AH0 PSL_dim_h def} if
0 0 M 0 -12 D S
295 0 M 0 -12 D S
591 0 M 0 -12 D S
886 0 M 0 -12 D S
1181 0 M 0 -12 D S
1476 0 M 0 -12 D S
1772 0 M 0 -12 D S
/PSL_A0_y PSL_AO0 PSL_TL1 PSL_AO0 mul 0 gt {PSL_TL1 add} if PSL_AO0 0 gt {PSL_sign 0 lt {PSL_AH0} {0} ifelse add} if PSL_sign mul def
/PSL_A1_y PSL_A0_y abs PSL_AO1 add PSL_sign 0 lt {PSL_AH1} {PSL_AH0} ifelse add PSL_sign mul def
/PSL_L_y PSL_A1_y abs PSL_LO add PSL_sign 0 lt {PSL_LH} {PSL_AH1} ifelse add PSL_sign mul def
/PSL_x 0 def
PSL_x PSL_A0_y M
currentpoint /PSL_save_y exch def /PSL_save_x exch def
0 0 M 42 F19 (1.94) E /PSL_dim_w exch def FP pathbbox N /PSL_dim_h exch def pop /PSL_dim_d exch def pop
PSL_save_x PSL_save_y m
PSL_dim_w 2 div neg 0 G 42 F19 (1.94) Z
/PSL_x 295 def
PSL_x PSL_A0_y M
currentpoint /PSL_save_y exch def /PSL_save_x exch def
0 0 M 42 F19 (1.95) E /PSL_dim_w exch def FP pathbbox N /PSL_dim_h exch def pop /PSL_dim_d exch def pop
PSL_save_x PSL_save_y m
PSL_dim_w 2 div neg 0 G 42 F19 (1.95) Z
/PSL_x 591 def
PSL_x PSL_A0_y M
currentpoint /PSL_save_y exch def /PSL_save_x exch def
0 0 M 42 F19 (1.96) E /PSL_dim_w exch def FP pathbbox N /PSL_dim_h exch def pop /PSL_dim_d exch def pop
PSL_save_x PSL_save_y m
PSL_dim_w 2 div neg 0 G 42 F19 (1.96) Z
/PSL_x 886 def
PSL_x PSL_A0_y M
currentpoint /PSL_save_y exch def /PSL_save_x exch def
0 0 M 42 F19 (1.97) E /PSL_dim_w exch def FP pathbbox N /PSL_dim_h exch def pop /PSL_dim_d exch def pop
PSL_save_x PSL_save_y m
PSL_dim_w 2 div neg 0 G 42 F19 (1.97) Z
/PSL_x 1181 def
PSL_x PSL_A0_y M
currentpoint /PSL_save_y exch def /PSL_save_x exch def
0 0 M 42 F19 (1.98) E /PSL_dim_w exch def FP pathbbox N /PSL_dim_h exch def pop /PSL_dim_d exch def pop
PSL_save_x PSL_save_y m
PSL_dim_w 2 div neg 0 G 42 F19 (1.98) Z
/PSL_x 1476 def
PSL_x PSL_A0_y M
currentpoint /PSL_save_y exch def /PSL_save_x exch def
0 0 M 42 F19 (1.99) E /PSL_dim_w exch def FP pathbbox N /PSL_dim_h exch def pop /PSL_dim_d exch def pop
PSL_save_x PSL_save_y m
PSL_dim_w 2 div neg 0 G 42 F19 (1.99) Z
/PSL_x 1772 def
PSL_x PSL_A0_y M
currentpoint /PSL_save_y exch def /PSL_save_x exch def
0 0 M 42 F19 (2.00) E /PSL_dim_w exch def FP pathbbox N /PSL_dim_h exch def pop /PSL_dim_d exch def pop
PSL_save_x PSL_save_y m
PSL_dim_w 2 div neg 0 G 42 F19 (2.00) Z
0 1181.1 T
/PSL_sign 1 def
/PSL_do_annot 0 def
/PSL_do_label 0 def
/PSL_do_A1 0 def
/PSL_TL1 24 def
/PSL_AO0 24 def
/PSL_AO1 24 def
/PSL_LO 35 def
/PSL_AF0 42 def
/PSL_AF1 67 def
/PSL_LF 42 def
/PSL_AH0 0 def
/PSL_AH1 0 def
0 0 M 42 F19 (M) E /PSL_dim_w exch def FP pathbbox N /PSL_dim_h exch def pop /PSL_dim_d exch def pop
PSL_dim_h PSL_dim_d sub /PSL_LH exch def
S 4 W
0 0 M 1772 0 D S
S 2 W
0 0 M 0 24 D S
295 0 M 0 24 D S
591 0 M 0 24 D S
886 0 M 0 24 D S
1181 0 M 0 24 D S
1476 0 M 0 24 D S
1772 0 M 0 24 D S
0 0 M 0 12 D S
295 0 M 0 12 D S
591 0 M 0 12 D S
886 0 M 0 12 D S
1181 0 M 0 12 D S
1476 0 M 0 12 D S
1772 0 M 0 12 D S
/PSL_A0_y PSL_AO0 PSL_TL1 PSL_AO0 mul 0 gt {PSL_TL1 add} if PSL_AO0 0 gt {PSL_sign 0 lt {PSL_AH0} {0} ifelse add} if PSL_sign mul def
/PSL_A1_y PSL_A0_y abs PSL_AO1 add PSL_sign 0 lt {PSL_AH1} {PSL_AH0} ifelse add PSL_sign mul def
/PSL_L_y PSL_A1_y abs PSL_LO add PSL_sign 0 lt {PSL_LH} {PSL_AH1} ifelse add PSL_sign mul def
0 -1181.1 T
S 0 A
PSL_font_encode 0 get 0 eq {ISOLatin1+_Encoding /Helvetica /Helvetica PSL_reencode PSL_font_encode 0 1 put} if
PSL_font_encode 19 get 0 eq {ISOLatin1+_Encoding /Bookman-Light /Bookman-Light PSL_reencode PSL_font_encode 19 1 put} if
0 setlinecap
0 setlinejoin
3.32551 setmiterlimit

%% PostScript produced by:
%%GMT:  psxy -JX15c/10c -R1.94/2/6.15/7.25 nusselt.dat -Sc0.1 -K -O
%%PROJ: xy 1.94000000 2.00000000 6.15000000 7.25000000 1.940 2.000 6.150 7.250 +xy +a=6378137.000 +b=6356752.314245
S V
0 0 M
1772 0 D
0 1181 D
-1772 0 D
eoclip N
S 1 W
S 0 A
FQ
O1
6 0 1090 SC
6 2 1089 SC
6 3 1088 SC
6 5 1087 SC
6 6 1086 SC
6 8 1085 SC
6 9 1084 SC
6 11 1083 SC
6 13 1081 SC
6 14 1080 SC
6 16 1078 SC
6 17 1076 SC
6 19 1075 SC
6 21 1073 SC
6 23 1071 SC
6 24 1068 SC
6 26 1066 SC
6 28 1064 SC
6 30 1062 SC
6 31 1059 SC
6 33 1057 SC
6 35 1054 SC
6 37 1051 SC
6 39 1049 SC
6 40 1046 SC
6 42 1043 SC
6 44 1040 SC
6 46 1038 SC
6 48 1035 SC
6 50 1032 SC
6 52 1029 SC
6 54 1026 SC
6 56 1023 SC
6 58 1020 SC
6 60 1017 SC
6 62 1013 SC
6 64 1010 SC
6 66 1007 SC
6 68 1004 SC
6 70 1001 SC
6 72 998 SC
6 74 994 SC
6 77 991 SC
6 79 988 SC
6 81 985 SC
6 83 981 SC
6 85 978 SC
6 87 975 SC
6 90 972 SC
6 92 969 SC
6 94 965 SC
6 96 962 SC
6 99 959 SC
6 101 956 SC
6 103 952 SC
6 106 949 SC
6 108 946 SC
6 110 943 SC
6 113 940 SC
6 115 936 SC
6 118 933 SC
6 120 930 SC
6 122 927 SC
6 125 924 SC
6 127 920 SC
6 130 917 SC
6 132 914 SC
6 135 911 SC
6 137 908 SC
6 140 905 SC
6 142 902 SC
6 145 899 SC
6 147 896 SC
6 150 893 SC
6 152 890 SC
6 155 886 SC
6 157 883 SC
6 160 880 SC
6 163 877 SC
6 165 875 SC
6 168 872 SC
6 170 869 SC
6 173 866 SC
6 176 863 SC
6 178 860 SC
6 181 857 SC
6 183 854 SC
6 186 851 SC
6 189 849 SC
6 191 846 SC
6 194 843 SC
6 197 840 SC
6 199 837 SC
6 202 835 SC
6 205 832 SC
6 208 829 SC
6 210 827 SC
6 213 824 SC
6 216 821 SC
6 218 819 SC
6 221 816 SC
6 224 814 SC
6 227 811 SC
6 229 809 SC
6 232 806 SC
6 235 804 SC
6 238 801 SC
6 241 799 SC
6 243 797 SC
6 246 794 SC
6 249 792 SC
6 252 789 SC
6 255 787 SC
6 257 785 SC
6 260 783 SC
6 263 780 SC
6 266 778 SC
6 269 776 SC
6 272 774 SC
6 274 771 SC
6 277 769 SC
6 280 767 SC
6 283 765 SC
6 286 763 SC
6 289 761 SC
6 292 759 SC
6 295 756 SC
6 295 756 SC
6 298 754 SC
6 301 752 SC
6 304 750 SC
6 307 748 SC
6 310 746 SC
6 313 744 SC
6 316 742 SC
6 319 740 SC
6 322 738 SC
6 325 736 SC
6 328 734 SC
6 331 732 SC
6 334 730 SC
6 337 728 SC
6 341 726 SC
6 344 724 SC
6 347 722 SC
6 350 721 SC
6 353 719 SC
6 356 717 SC
6 359 715 SC
6 362 713 SC
6 365 712 SC
6 368 710 SC
6 371 708 SC
6 374 707 SC
6 376 705 SC
6 379 704 SC
6 382 702 SC
6 385 701 SC
6 388 699 SC
6 391 698 SC
6 393 696 SC
6 396 695 SC
6 399 694 SC
6 401 692 SC
6 404 691 SC
6 407 690 SC
6 409 689 SC
6 412 688 SC
6 415 686 SC
6 417 685 SC
6 420 685 SC
6 422 684 SC
6 425 683 SC
6 428 682 SC
6 430 681 SC
6 433 681 SC
6 435 680 SC
6 438 680 SC
6 440 679 SC
6 443 679 SC
6 445 679 SC
6 447 678 SC
6 450 678 SC
6 452 678 SC
6 455 678 SC
6 457 679 SC
6 459 679 SC
6 462 679 SC
6 464 680 SC
6 466 680 SC
6 468 681 SC
6 471 682 SC
6 473 683 SC
6 475 684 SC
6 478 685 SC
6 480 686 SC
6 482 688 SC
6 484 689 SC
6 486 691 SC
6 489 693 SC
6 491 695 SC
6 493 697 SC
6 495 699 SC
6 497 701 SC
6 499 704 SC
6 501 706 SC
6 504 709 SC
6 506 712 SC
6 508 715 SC
6 510 718 SC
6 512 722 SC
6 514 725 SC
6 516 729 SC
6 518 733 SC
6 520 737 SC
6 522 741 SC
6 524 745 SC
6 526 749 SC
6 528 754 SC
6 530 759 SC
6 532 764 SC
6 534 769 SC
6 536 774 SC
6 538 779 SC
6 539 785 SC
6 541 791 SC
6 543 796 SC
6 545 802 SC
6 547 809 SC
6 549 815 SC
6 551 821 SC
6 553 828 SC
6 554 835 SC
6 556 842 SC
6 558 849 SC
6 560 856 SC
6 562 863 SC
6 563 871 SC
6 565 878 SC
6 567 886 SC
6 569 894 SC
6 570 902 SC
6 572 910 SC
6 574 918 SC
6 576 927 SC
6 577 935 SC
6 579 944 SC
6 581 953 SC
6 583 962 SC
6 584 971 SC
6 586 980 SC
6 588 989 SC
6 589 999 SC
6 591 1005 SC
6 592 1015 SC
6 594 1024 SC
6 596 1034 SC
6 597 1043 SC
6 599 1052 SC
6 600 1061 SC
6 602 1070 SC
6 603 1079 SC
6 605 1088 SC
6 606 1097 SC
6 608 1105 SC
6 609 1114 SC
6 611 1122 SC
6 612 1131 SC
6 613 1139 SC
6 615 1147 SC
6 616 1155 SC
6 618 1162 SC
6 619 1170 SC
6 620 1178 SC
6 724 1180 SC
6 726 1173 SC
6 728 1166 SC
6 729 1159 SC
6 731 1152 SC
6 733 1144 SC
6 735 1137 SC
6 736 1130 SC
6 738 1122 SC
6 740 1115 SC
6 742 1107 SC
6 744 1100 SC
6 746 1092 SC
6 748 1085 SC
6 750 1077 SC
6 752 1070 SC
6 754 1062 SC
6 756 1055 SC
6 758 1047 SC
6 760 1040 SC
6 762 1032 SC
6 764 1025 SC
6 766 1018 SC
6 768 1011 SC
6 770 1004 SC
6 772 997 SC
6 775 990 SC
6 777 983 SC
6 779 976 SC
6 781 969 SC
6 783 963 SC
6 785 956 SC
6 788 950 SC
6 790 943 SC
6 792 937 SC
6 795 931 SC
6 797 925 SC
6 799 919 SC
6 801 914 SC
6 804 908 SC
6 806 902 SC
6 809 897 SC
6 811 892 SC
6 813 886 SC
6 816 881 SC
6 818 876 SC
6 820 871 SC
6 823 867 SC
6 825 862 SC
6 828 857 SC
6 830 853 SC
6 833 848 SC
6 835 844 SC
6 838 840 SC
6 840 836 SC
6 842 832 SC
6 845 828 SC
6 847 824 SC
6 850 820 SC
6 852 816 SC
6 855 813 SC
6 857 809 SC
6 860 806 SC
6 862 802 SC
6 865 799 SC
6 868 795 SC
6 870 792 SC
6 873 789 SC
6 875 786 SC
6 878 782 SC
6 880 779 SC
6 883 776 SC
6 885 773 SC
6 886 773 SC
6 888 770 SC
6 891 767 SC
6 893 764 SC
6 896 761 SC
6 899 758 SC
6 901 756 SC
6 904 753 SC
6 906 750 SC
6 909 748 SC
6 911 745 SC
6 914 742 SC
6 916 740 SC
6 919 737 SC
6 921 735 SC
6 924 732 SC
6 927 729 SC
6 929 727 SC
6 932 724 SC
6 934 722 SC
6 937 719 SC
6 939 717 SC
6 942 714 SC
6 944 712 SC
6 947 709 SC
6 949 707 SC
6 952 704 SC
6 955 702 SC
6 957 699 SC
6 960 697 SC
6 962 695 SC
6 965 692 SC
6 967 689 SC
6 970 687 SC
6 972 684 SC
6 975 682 SC
6 977 679 SC
6 980 677 SC
6 982 674 SC
6 985 672 SC
6 987 669 SC
6 990 666 SC
6 992 664 SC
6 995 661 SC
6 997 658 SC
6 1000 655 SC
6 1003 653 SC
6 1005 650 SC
6 1008 647 SC
6 1010 644 SC
6 1013 641 SC
6 1015 638 SC
6 1018 636 SC
6 1020 633 SC
6 1023 630 SC
6 1025 627 SC
6 1028 623 SC
6 1030 620 SC
6 1033 617 SC
6 1035 614 SC
6 1038 611 SC
6 1040 608 SC
6 1043 604 SC
6 1045 601 SC
6 1048 598 SC
6 1050 594 SC
6 1053 591 SC
6 1055 587 SC
6 1058 584 SC
6 1060 580 SC
6 1063 577 SC
6 1066 573 SC
6 1068 569 SC
6 1071 565 SC
6 1073 562 SC
6 1076 558 SC
6 1078 554 SC
6 1081 550 SC
6 1083 546 SC
6 1086 542 SC
6 1088 538 SC
6 1091 534 SC
6 1093 530 SC
6 1096 526 SC
6 1098 522 SC
6 1101 518 SC
6 1104 513 SC
6 1106 509 SC
6 1109 505 SC
6 1111 501 SC
6 1114 496 SC
6 1116 492 SC
6 1119 488 SC
6 1121 483 SC
6 1124 479 SC
6 1126 475 SC
6 1129 470 SC
6 1132 466 SC
6 1134 461 SC
6 1137 457 SC
6 1139 453 SC
6 1142 448 SC
6 1144 444 SC
6 1147 440 SC
6 1149 436 SC
6 1152 431 SC
6 1154 427 SC
6 1157 423 SC
6 1159 419 SC
6 1162 415 SC
6 1164 411 SC
6 1167 407 SC
6 1169 404 SC
6 1172 400 SC
6 1174 396 SC
6 1177 393 SC
6 1179 389 SC
6 1181 387 SC
6 1184 384 SC
6 1186 381 SC
6 1188 378 SC
6 1191 375 SC
6 1193 373 SC
6 1196 370 SC
6 1198 368 SC
6 1200 366 SC
6 1203 364 SC
6 1205 362 SC
6 1208 361 SC
6 1210 360 SC
6 1212 358 SC
6 1215 358 SC
6 1217 357 SC
6 1219 356 SC
6 1221 356 SC
6 1224 356 SC
6 1226 357 SC
6 1228 357 SC
6 1230 358 SC
6 1232 359 SC
6 1234 360 SC
6 1237 361 SC
6 1239 363 SC
6 1241 365 SC
6 1243 367 SC
6 1245 370 SC
6 1247 373 SC
6 1249 376 SC
6 1251 379 SC
6 1253 382 SC
6 1255 386 SC
6 1257 390 SC
6 1259 394 SC
6 1260 399 SC
6 1262 404 SC
6 1264 408 SC
6 1266 414 SC
6 1268 419 SC
6 1270 425 SC
6 1271 430 SC
6 1273 436 SC
6 1275 443 SC
6 1276 449 SC
6 1278 456 SC
6 1280 462 SC
6 1281 469 SC
6 1283 477 SC
6 1285 484 SC
6 1286 491 SC
6 1288 499 SC
6 1289 507 SC
6 1291 515 SC
6 1292 523 SC
6 1294 531 SC
6 1295 539 SC
6 1297 548 SC
6 1298 556 SC
6 1300 565 SC
6 1301 574 SC
6 1303 582 SC
6 1304 591 SC
6 1305 600 SC
6 1307 609 SC
6 1308 618 SC
6 1310 628 SC
6 1311 637 SC
6 1312 646 SC
6 1314 655 SC
6 1315 665 SC
6 1316 674 SC
6 1318 684 SC
6 1319 693 SC
6 1320 703 SC
6 1321 712 SC
6 1323 721 SC
6 1324 731 SC
6 1325 740 SC
6 1326 750 SC
6 1328 759 SC
6 1329 768 SC
6 1330 778 SC
6 1331 787 SC
6 1332 796 SC
6 1334 806 SC
6 1335 815 SC
6 1336 824 SC
6 1337 833 SC
6 1338 842 SC
6 1340 851 SC
6 1341 860 SC
6 1342 869 SC
6 1343 877 SC
6 1344 886 SC
6 1346 894 SC
6 1347 903 SC
6 1348 911 SC
6 1349 919 SC
6 1350 928 SC
6 1351 936 SC
6 1352 944 SC
6 1354 951 SC
6 1355 959 SC
6 1356 967 SC
6 1357 974 SC
6 1358 981 SC
6 1359 989 SC
6 1361 996 SC
6 1362 1003 SC
6 1363 1009 SC
6 1364 1016 SC
6 1365 1023 SC
6 1366 1029 SC
6 1368 1035 SC
6 1369 1041 SC
6 1370 1047 SC
6 1371 1053 SC
6 1372 1059 SC
6 1373 1064 SC
6 1375 1070 SC
6 1376 1075 SC
6 1377 1080 SC
6 1378 1085 SC
6 1379 1089 SC
6 1381 1094 SC
6 1382 1098 SC
6 1383 1102 SC
6 1384 1106 SC
6 1385 1110 SC
6 1387 1114 SC
6 1388 1117 SC
6 1389 1121 SC
6 1390 1124 SC
6 1392 1127 SC
6 1393 1130 SC
6 1394 1132 SC
6 1395 1135 SC
6 1397 1137 SC
6 1398 1139 SC
6 1399 1141 SC
6 1401 1143 SC
6 1402 1145 SC
6 1403 1146 SC
6 1405 1148 SC
6 1406 1149 SC
6 1407 1150 SC
6 1409 1151 SC
6 1410 1151 SC
6 1412 1152 SC
6 1413 1152 SC
6 1414 1152 SC
6 1416 1152 SC
6 1417 1152 SC
6 1419 1152 SC
6 1420 1151 SC
6 1422 1151 SC
6 1423 1150 SC
6 1425 1149 SC
6 1426 1148 SC
6 1428 1147 SC
6 1429 1145 SC
6 1431 1144 SC
6 1432 1142 SC
6 1434 1141 SC
6 1435 1139 SC
6 1437 1137 SC
6 1439 1135 SC
6 1440 1133 SC
6 1442 1131 SC
6 1443 1128 SC
6 1445 1126 SC
6 1447 1123 SC
6 1449 1121 SC
6 1450 1118 SC
6 1452 1115 SC
6 1454 1112 SC
6 1456 1109 SC
6 1457 1106 SC
6 1459 1103 SC
6 1461 1100 SC
6 1463 1097 SC
6 1465 1094 SC
6 1466 1090 SC
6 1468 1087 SC
6 1470 1084 SC
6 1472 1080 SC
6 1474 1077 SC
6 1476 1073 SC
6 1476 1073 SC
6 1478 1069 SC
6 1480 1066 SC
6 1482 1062 SC
6 1484 1059 SC
6 1486 1055 SC
6 1488 1052 SC
6 1491 1048 SC
6 1493 1044 SC
6 1495 1041 SC
6 1497 1037 SC
6 1499 1034 SC
6 1501 1030 SC
6 1503 1026 SC
6 1505 1023 SC
6 1508 1019 SC
6 1510 1016 SC
6 1512 1012 SC
6 1514 1008 SC
6 1517 1005 SC
6 1519 1001 SC
6 1521 998 SC
6 1523 994 SC
6 1526 991 SC
6 1528 987 SC
6 1530 984 SC
6 1533 980 SC
6 1535 977 SC
6 1538 973 SC
6 1540 970 SC
6 1542 966 SC
6 1545 963 SC
6 1547 960 SC
6 1550 956 SC
6 1552 953 SC
6 1555 949 SC
6 1557 946 SC
6 1560 943 SC
6 1562 939 SC
6 1565 936 SC
6 1567 933 SC
6 1570 930 SC
6 1572 927 SC
6 1575 923 SC
6 1577 920 SC
6 1580 917 SC
6 1582 914 SC
6 1585 911 SC
6 1588 908 SC
6 1590 905 SC
6 1593 901 SC
6 1595 898 SC
6 1598 895 SC
6 1601 892 SC
6 1603 889 SC
6 1606 887 SC
6 1609 884 SC
6 1611 881 SC
6 1614 878 SC
6 1617 875 SC
6 1619 872 SC
6 1622 869 SC
6 1625 867 SC
6 1627 864 SC
6 1630 861 SC
6 1633 858 SC
6 1636 856 SC
6 1638 853 SC
6 1641 850 SC
6 1644 848 SC
6 1647 845 SC
6 1649 843 SC
6 1652 840 SC
6 1655 838 SC
6 1658 835 SC
6 1660 833 SC
6 1663 830 SC
6 1666 828 SC
6 1669 826 SC
6 1671 823 SC
6 1674 821 SC
6 1677 819 SC
6 1680 816 SC
6 1683 814 SC
6 1686 812 SC
6 1688 810 SC
6 1691 808 SC
6 1694 805 SC
6 1697 803 SC
6 1700 801 SC
6 1703 799 SC
6 1706 797 SC
6 1708 795 SC
6 1711 793 SC
6 1714 791 SC
6 1717 789 SC
6 1720 787 SC
6 1723 785 SC
6 1726 783 SC
6 1729 781 SC
6 1732 779 SC
6 1735 778 SC
6 1738 776 SC
6 1741 774 SC
6 1744 772 SC
6 1747 770 SC
6 1750 768 SC
6 1753 767 SC
6 1756 765 SC
6 1759 763 SC
6 1762 761 SC
6 1765 759 SC
6 1768 758 SC
6 1772 756 SC
S U
S [] 0 B
S 0 A
showpage
